[{  "_id" : ObjectId("623c48befb94542a7c070249"),  "name" : "2-Step",  "type" : "G" },
{  "_id" : ObjectId("623c48befb94542a7c07024a"),  "name" : "Abstract",  "type" : "D" },
{  "_id" : ObjectId("623c48befb94542a7c07024b"),  "name" : "Acapella",  "type" : "G" },
{  "_id" : ObjectId("623c48befb94542a7c07024c"),  "name" : "Acid",  "type" : "G" },
{  "_id" : ObjectId("623c48befb94542a7c07024d"),  "name" : "Acid Jazz",  "type" : "G" },
{  "_id" : ObjectId("623c48befb94542a7c07024e"),  "name" : "Acoustic",  "type" : "G" },
{  "_id" : ObjectId("623c48befb94542a7c07024f"),  "name" : "Afrobeat",  "type" : "G" },
{  "_id" : ObjectId("623c48befb94542a7c070250"),  "name" : "Album",  "type" : "F" },
{  "_id" : ObjectId("623c48befb94542a7c070251"),  "name" : "Alternative Rock",  "type" : "G" },
{  "_id" : ObjectId("623c48befb94542a7c070252"),  "name" : "Ambient",  "type" : "G" },
{  "_id" : ObjectId("623c48befb94542a7c070253"),  "name" : "Avantgarde",  "type" : "G" },
{  "_id" : ObjectId("623c48befb94542a7c070254"),  "name" : "Bass",  "type" : "G" },
{  "_id" : ObjectId("623c48befb94542a7c070255"),  "name" : "Beatbox",  "type" : "G" },
{  "_id" : ObjectId("623c48befb94542a7c070256"),  "name" : "Big Beat",  "type" : "G" },
{  "_id" : ObjectId("623c48befb94542a7c070257"),  "name" : "Bossa Nova",  "type" : "G" },
{  "_id" : ObjectId("623c48befb94542a7c070258"),  "name" : "Breakbeat",  "type" : "G" },
{  "_id" : ObjectId("623c48befb94542a7c070259"),  "name" : "Breakcore",  "type" : "G" },
{  "_id" : ObjectId("623c48befb94542a7c07025a"),  "name" : "Breaks",  "type" : "G" },
{  "_id" : ObjectId("623c48befb94542a7c07025b"),  "name" : "Breakstep",  "type" : "G" },
{  "_id" : ObjectId("623c48befb94542a7c07025c"),  "name" : "Broken Beat",  "type" : "G" },
{  "_id" : ObjectId("623c48befb94542a7c07025d"),  "name" : "Cassette",  "type" : "S" },
{  "_id" : ObjectId("623c48befb94542a7c07025e"),  "name" : "CD",  "type" : "S" },
{  "_id" : ObjectId("623c48befb94542a7c07025f"),  "name" : "Cheezy",  "type" : "D" },
{  "_id" : ObjectId("623c48befb94542a7c070260"),  "name" : "Chillwave",  "type" : "G" },
{  "_id" : ObjectId("623c48befb94542a7c070261"),  "name" : "Chiptune",  "type" : "G" },
{  "_id" : ObjectId("623c48befb94542a7c070262"),  "name" : "Classical",  "type" : "G" },
{  "_id" : ObjectId("623c48befb94542a7c070263"),  "name" : "Clean",  "type" : "D" },
{  "_id" : ObjectId("623c48befb94542a7c070264"),  "name" : "Cold",  "type" : "D" },
{  "_id" : ObjectId("623c48befb94542a7c070265"),  "name" : "Compilation",  "type" : "F" },
{  "_id" : ObjectId("623c48befb94542a7c070266"),  "name" : "Cut-Up",  "type" : "G" },
{  "_id" : ObjectId("623c48befb94542a7c070267"),  "name" : "Dancehall",  "type" : "G" },
{  "_id" : ObjectId("623c48befb94542a7c070268"),  "name" : "Dark",  "type" : "D" },
{  "_id" : ObjectId("623c48befb94542a7c070269"),  "name" : "Dark-On",  "type" : "G" },
{  "_id" : ObjectId("623c48befb94542a7c07026a"),  "name" : "Darkpsy",  "type" : "G" },
{  "_id" : ObjectId("623c48befb94542a7c07026b"),  "name" : "Darkstep",  "type" : "G" },
{  "_id" : ObjectId("623c48befb94542a7c07026c"),  "name" : "Darkwave",  "type" : "G" },
{  "_id" : ObjectId("623c48befb94542a7c07026d"),  "name" : "Deep",  "type" : "D" },
{  "_id" : ObjectId("623c48befb94542a7c07026e"),  "name" : "Disco",  "type" : "G" },
{  "_id" : ObjectId("623c48befb94542a7c07026f"),  "name" : "Disco House",  "type" : "G" },
{  "_id" : ObjectId("623c48befb94542a7c070270"),  "name" : "Disharmonic",  "type" : "D" },
{  "_id" : ObjectId("623c48befb94542a7c070271"),  "name" : "DJ Mix",  "type" : "F" },
{  "_id" : ObjectId("623c48befb94542a7c070272"),  "name" : "Downtempo",  "type" : "G" },
{  "_id" : ObjectId("623c48befb94542a7c070273"),  "name" : "Dream Trance",  "type" : "G" },
{  "_id" : ObjectId("623c48befb94542a7c070274"),  "name" : "Drone",  "type" : "G" },
{  "_id" : ObjectId("623c48befb94542a7c070275"),  "name" : "Drum & Bass",  "type" : "G" },
{  "_id" : ObjectId("623c48befb94542a7c070276"),  "name" : "Drumstep",  "type" : "G" },
{  "_id" : ObjectId("623c48befb94542a7c070277"),  "name" : "Dub",  "type" : "G" },
{  "_id" : ObjectId("623c48befb94542a7c070278"),  "name" : "Dub Techno",  "type" : "G" },
{  "_id" : ObjectId("623c48befb94542a7c070279"),  "name" : "Dubstep",  "type" : "G" },
{  "_id" : ObjectId("623c48befb94542a7c07027a"),  "name" : "Easy",  "type" : "D" },
{  "_id" : ObjectId("623c48befb94542a7c07027b"),  "name" : "EBM",  "type" : "G" },
{  "_id" : ObjectId("623c48befb94542a7c07027c"),  "name" : "Electro",  "type" : "G" },
{  "_id" : ObjectId("623c48befb94542a7c07027d"),  "name" : "Electro House",  "type" : "G" },
{  "_id" : ObjectId("623c48befb94542a7c07027e"),  "name" : "Electro Swing",  "type" : "G" },
{  "_id" : ObjectId("623c48befb94542a7c07027f"),  "name" : "Electroclash",  "type" : "G" },
{  "_id" : ObjectId("623c48befb94542a7c070280"),  "name" : "EP",  "type" : "F" },
{  "_id" : ObjectId("623c48befb94542a7c070281"),  "name" : "Ethnotronic",  "type" : "G" },
{  "_id" : ObjectId("623c48befb94542a7c070282"),  "name" : "Euro Dance",  "type" : "G" },
{  "_id" : ObjectId("623c48befb94542a7c070283"),  "name" : "Euro House",  "type" : "G" },
{  "_id" : ObjectId("623c48befb94542a7c070284"),  "name" : "Experimental",  "type" : "G" },
{  "_id" : ObjectId("623c48befb94542a7c070285"),  "name" : "Field Recording",  "type" : "G" },
{  "_id" : ObjectId("623c48befb94542a7c070286"),  "name" : "Footwork",  "type" : "G" },
{  "_id" : ObjectId("623c48befb94542a7c070287"),  "name" : "Forest",  "type" : "G" },
{  "_id" : ObjectId("623c48befb94542a7c070288"),  "name" : "Free Jazz",  "type" : "G" },
{  "_id" : ObjectId("623c48befb94542a7c070289"),  "name" : "Freestyle",  "type" : "G" },
{  "_id" : ObjectId("623c48befb94542a7c07028a"),  "name" : "Full-On",  "type" : "G" },
{  "_id" : ObjectId("623c48befb94542a7c07028b"),  "name" : "Funk",  "type" : "G" },
{  "_id" : ObjectId("623c48befb94542a7c07028c"),  "name" : "Funkstep",  "type" : "G" },
{  "_id" : ObjectId("623c48befb94542a7c07028d"),  "name" : "Funny",  "type" : "D" },
{  "_id" : ObjectId("623c48befb94542a7c07028e"),  "name" : "Fusion",  "type" : "G" },
{  "_id" : ObjectId("623c48befb94542a7c07028f"),  "name" : "Future Bass",  "type" : "G" },
{  "_id" : ObjectId("623c48befb94542a7c070290"),  "name" : "Future Jazz",  "type" : "G" },
{  "_id" : ObjectId("623c48befb94542a7c070291"),  "name" : "Future Pop",  "type" : "G" },
{  "_id" : ObjectId("623c48befb94542a7c070292"),  "name" : "Gabber",  "type" : "G" },
{  "_id" : ObjectId("623c48befb94542a7c070293"),  "name" : "Garage House",  "type" : "G" },
{  "_id" : ObjectId("623c48befb94542a7c070294"),  "name" : "Ghetto House",  "type" : "G" },
{  "_id" : ObjectId("623c48befb94542a7c070295"),  "name" : "Glitch",  "type" : "G" },
{  "_id" : ObjectId("623c48befb94542a7c070296"),  "name" : "Glitch Hop",  "type" : "G" },
{  "_id" : ObjectId("623c48befb94542a7c070297"),  "name" : "Goa Trance",  "type" : "G" },
{  "_id" : ObjectId("623c48befb94542a7c070298"),  "name" : "Grime",  "type" : "G" },
{  "_id" : ObjectId("623c48befb94542a7c070299"),  "name" : "Halftime",  "type" : "G" },
{  "_id" : ObjectId("623c48befb94542a7c07029a"),  "name" : "Happy",  "type" : "D" },
{  "_id" : ObjectId("623c48befb94542a7c07029b"),  "name" : "Hard",  "type" : "D" },
{  "_id" : ObjectId("623c48befb94542a7c07029c"),  "name" : "Hardcore",  "type" : "G" },
{  "_id" : ObjectId("623c48befb94542a7c07029d"),  "name" : "Hardstep",  "type" : "G" },
{  "_id" : ObjectId("623c48befb94542a7c07029e"),  "name" : "Hardstyle",  "type" : "G" },
{  "_id" : ObjectId("623c48befb94542a7c07029f"),  "name" : "Hi-Tech",  "type" : "G" },
{  "_id" : ObjectId("623c48befb94542a7c0702a0"),  "name" : "Hip Hop",  "type" : "G" },
{  "_id" : ObjectId("623c48befb94542a7c0702a1"),  "name" : "Hip House",  "type" : "G" },
{  "_id" : ObjectId("623c48befb94542a7c0702a2"),  "name" : "Horror",  "type" : "D" },
{  "_id" : ObjectId("623c48befb94542a7c0702a3"),  "name" : "House",  "type" : "G" },
{  "_id" : ObjectId("623c48befb94542a7c0702a4"),  "name" : "Hybrid",  "type" : "D" },
{  "_id" : ObjectId("623c48befb94542a7c0702a5"),  "name" : "Hypnotic",  "type" : "D" },
{  "_id" : ObjectId("623c48befb94542a7c0702a6"),  "name" : "IDM",  "type" : "G" },
{  "_id" : ObjectId("623c48befb94542a7c0702a7"),  "name" : "Illbient",  "type" : "G" },
{  "_id" : ObjectId("623c48befb94542a7c0702a8"),  "name" : "Improvized",  "type" : "D" },
{  "_id" : ObjectId("623c48befb94542a7c0702a9"),  "name" : "Indie",  "type" : "G" },
{  "_id" : ObjectId("623c48befb94542a7c0702aa"),  "name" : "Industrial",  "type" : "G" },
{  "_id" : ObjectId("623c48befb94542a7c0702ab"),  "name" : "J-Pop",  "type" : "G" },
{  "_id" : ObjectId("623c48befb94542a7c0702ac"),  "name" : "Jazz",  "type" : "G" },
{  "_id" : ObjectId("623c48befb94542a7c0702ad"),  "name" : "Jazzdance",  "type" : "G" },
{  "_id" : ObjectId("623c48befb94542a7c0702ae"),  "name" : "Jumpstyle",  "type" : "G" },
{  "_id" : ObjectId("623c48befb94542a7c0702af"),  "name" : "Jungle",  "type" : "G" },
{  "_id" : ObjectId("623c48befb94542a7c0702b0"),  "name" : "K-Pop",  "type" : "G" },
{  "_id" : ObjectId("623c48befb94542a7c0702b1"),  "name" : "Krautrock",  "type" : "G" },
{  "_id" : ObjectId("623c48befb94542a7c0702b2"),  "name" : "Latin",  "type" : "G" },
{  "_id" : ObjectId("623c48befb94542a7c0702b3"),  "name" : "Leftfield",  "type" : "G" },
{  "_id" : ObjectId("623c48befb94542a7c0702b4"),  "name" : "Liquid Funk",  "type" : "G" },
{  "_id" : ObjectId("623c48befb94542a7c0702b5"),  "name" : "Lo-Fi",  "type" : "G" },
{  "_id" : ObjectId("623c48befb94542a7c0702b6"),  "name" : "Lounge",  "type" : "G" },
{  "_id" : ObjectId("623c48befb94542a7c0702b7"),  "name" : "Mash-Up",  "type" : "G" },
{  "_id" : ObjectId("623c48befb94542a7c0702b8"),  "name" : "Melancholic",  "type" : "D" },
{  "_id" : ObjectId("623c48befb94542a7c0702b9"),  "name" : "Melodic",  "type" : "G" },
{  "_id" : ObjectId("623c48befb94542a7c0702ba"),  "name" : "Metal",  "type" : "G" },
{  "_id" : ObjectId("623c48befb94542a7c0702bb"),  "name" : "Microhouse",  "type" : "G" },
{  "_id" : ObjectId("623c48befb94542a7c0702bc"),  "name" : "Minimal",  "type" : "G" },
{  "_id" : ObjectId("623c48befb94542a7c0702bd"),  "name" : "Modern",  "type" : "G" },
{  "_id" : ObjectId("623c48befb94542a7c0702be"),  "name" : "Modern Classical",  "type" : "G" },
{  "_id" : ObjectId("623c48befb94542a7c0702bf"),  "name" : "Moombahton",  "type" : "G" },
{  "_id" : ObjectId("623c48befb94542a7c0702c0"),  "name" : "Morning",  "type" : "G" },
{  "_id" : ObjectId("623c48befb94542a7c0702c1"),  "name" : "Musique Concrete",  "type" : "G" },
{  "_id" : ObjectId("623c48befb94542a7c0702c2"),  "name" : "Neo Goa",  "type" : "G" },
{  "_id" : ObjectId("623c48befb94542a7c0702c3"),  "name" : "Neurofunk",  "type" : "G" },
{  "_id" : ObjectId("623c48befb94542a7c0702c4"),  "name" : "New Age",  "type" : "G" },
{  "_id" : ObjectId("623c48befb94542a7c0702c5"),  "name" : "New Beat",  "type" : "G" },
{  "_id" : ObjectId("623c48befb94542a7c0702c6"),  "name" : "New Wave",  "type" : "G" },
{  "_id" : ObjectId("623c48befb94542a7c0702c7"),  "name" : "Night",  "type" : "G" },
{  "_id" : ObjectId("623c48befb94542a7c0702c8"),  "name" : "Nitzhonot",  "type" : "G" },
{  "_id" : ObjectId("623c48befb94542a7c0702c9"),  "name" : "Noise",  "type" : "G" },
{  "_id" : ObjectId("623c48befb94542a7c0702ca"),  "name" : "Noise Core",  "type" : "G" },
{  "_id" : ObjectId("623c48befb94542a7c0702cb"),  "name" : "Noisy",  "type" : "D" },
{  "_id" : ObjectId("623c48befb94542a7c0702cc"),  "name" : "Nu Jazz",  "type" : "G" },
{  "_id" : ObjectId("623c48befb94542a7c0702cd"),  "name" : "Oldskool",  "type" : "G" },
{  "_id" : ObjectId("623c48befb94542a7c0702ce"),  "name" : "Organic",  "type" : "D" },
{  "_id" : ObjectId("623c48befb94542a7c0702cf"),  "name" : "Other",  "type" : "S" },
{  "_id" : ObjectId("623c48befb94542a7c0702d0"),  "name" : "Pop",  "type" : "G" },
{  "_id" : ObjectId("623c48befb94542a7c0702d1"),  "name" : "Power Electronics",  "type" : "G" },
{  "_id" : ObjectId("623c48befb94542a7c0702d2"),  "name" : "Power Noise",  "type" : "G" },
{  "_id" : ObjectId("623c48befb94542a7c0702d3"),  "name" : "Progressive",  "type" : "G" },
{  "_id" : ObjectId("623c48befb94542a7c0702d4"),  "name" : "Progressive Breaks",  "type" : "G" },
{  "_id" : ObjectId("623c48befb94542a7c0702d5"),  "name" : "Progressive House",  "type" : "G" },
{  "_id" : ObjectId("623c48befb94542a7c0702d6"),  "name" : "Progressive Offbeat",  "type" : "G" },
{  "_id" : ObjectId("623c48befb94542a7c0702d7"),  "name" : "Progressive PsyTrance",  "type" : "G" },
{  "_id" : ObjectId("623c48befb94542a7c0702d8"),  "name" : "Progressive Rock",  "type" : "G" },
{  "_id" : ObjectId("623c48befb94542a7c0702d9"),  "name" : "Progressive Techno",  "type" : "G" },
{  "_id" : ObjectId("623c48befb94542a7c0702da"),  "name" : "Progressive Trance",  "type" : "G" },
{  "_id" : ObjectId("623c48befb94542a7c0702db"),  "name" : "PsyBass",  "type" : "G" },
{  "_id" : ObjectId("623c48befb94542a7c0702dc"),  "name" : "Psybient",  "type" : "G" },
{  "_id" : ObjectId("623c48befb94542a7c0702dd"),  "name" : "PsyBreaks",  "type" : "G" },
{  "_id" : ObjectId("623c48befb94542a7c0702de"),  "name" : "PsyChill",  "type" : "G" },
{  "_id" : ObjectId("623c48befb94542a7c0702df"),  "name" : "PsyCore",  "type" : "G" },
{  "_id" : ObjectId("623c48befb94542a7c0702e0"),  "name" : "PsyDnB",  "type" : "G" },
{  "_id" : ObjectId("623c48befb94542a7c0702e1"),  "name" : "PsyDub",  "type" : "G" },
{  "_id" : ObjectId("623c48befb94542a7c0702e2"),  "name" : "PsyGlitch",  "type" : "G" },
{  "_id" : ObjectId("623c48befb94542a7c0702e3"),  "name" : "PsyTech",  "type" : "G" },
{  "_id" : ObjectId("623c48befb94542a7c0702e4"),  "name" : "PsyTrance",  "type" : "G" },
{  "_id" : ObjectId("623c48befb94542a7c0702e5"),  "name" : "Punk",  "type" : "G" },
{  "_id" : ObjectId("623c48befb94542a7c0702e6"),  "name" : "Ragga",  "type" : "G" },
{  "_id" : ObjectId("623c48befb94542a7c0702e7"),  "name" : "Random",  "type" : "D" },
{  "_id" : ObjectId("623c48befb94542a7c0702e8"),  "name" : "Rave",  "type" : "G" },
{  "_id" : ObjectId("623c48befb94542a7c0702e9"),  "name" : "Reggae",  "type" : "G" },
{  "_id" : ObjectId("623c48befb94542a7c0702ea"),  "name" : "Reggaeton",  "type" : "G" },
{  "_id" : ObjectId("623c48befb94542a7c0702eb"),  "name" : "RnB",  "type" : "G" },
{  "_id" : ObjectId("623c48befb94542a7c0702ec"),  "name" : "Robotic",  "type" : "D" },
{  "_id" : ObjectId("623c48befb94542a7c0702ed"),  "name" : "Rock",  "type" : "G" },
{  "_id" : ObjectId("623c48befb94542a7c0702ee"),  "name" : "Sad",  "type" : "D" },
{  "_id" : ObjectId("623c48befb94542a7c0702ef"),  "name" : "Samba",  "type" : "G" },
{  "_id" : ObjectId("623c48befb94542a7c0702f0"),  "name" : "Schranz",  "type" : "G" },
{  "_id" : ObjectId("623c48befb94542a7c0702f1"),  "name" : "Serious",  "type" : "D" },
{  "_id" : ObjectId("623c48befb94542a7c0702f2"),  "name" : "Sick",  "type" : "D" },
{  "_id" : ObjectId("623c48befb94542a7c0702f3"),  "name" : "Single",  "type" : "F" },
{  "_id" : ObjectId("623c48befb94542a7c0702f4"),  "name" : "Soul",  "type" : "G" },
{  "_id" : ObjectId("623c48befb94542a7c0702f5"),  "name" : "Soulful",  "type" : "D" },
{  "_id" : ObjectId("623c48befb94542a7c0702f6"),  "name" : "Sound Collage",  "type" : "G" },
{  "_id" : ObjectId("623c48befb94542a7c0702f7"),  "name" : "Soundtrack",  "type" : "F" },
{  "_id" : ObjectId("623c48befb94542a7c0702f8"),  "name" : "Space",  "type" : "G" },
{  "_id" : ObjectId("623c48befb94542a7c0702f9"),  "name" : "Space Rock",  "type" : "G" },
{  "_id" : ObjectId("623c48befb94542a7c0702fa"),  "name" : "Speed Garage",  "type" : "G" },
{  "_id" : ObjectId("623c48befb94542a7c0702fb"),  "name" : "Spiritual",  "type" : "D" },
{  "_id" : ObjectId("623c48befb94542a7c0702fc"),  "name" : "Spoken Word",  "type" : "G" },
{  "_id" : ObjectId("623c48befb94542a7c0702fd"),  "name" : "Suomi",  "type" : "G" },
{  "_id" : ObjectId("623c48befb94542a7c0702fe"),  "name" : "Swing",  "type" : "G" },
{  "_id" : ObjectId("623c48befb94542a7c0702ff"),  "name" : "Synth Pop",  "type" : "G" },
{  "_id" : ObjectId("623c48befb94542a7c070300"),  "name" : "Synth Punk",  "type" : "G" },
{  "_id" : ObjectId("623c48befb94542a7c070301"),  "name" : "Synthwave",  "type" : "G" },
{  "_id" : ObjectId("623c48befb94542a7c070302"),  "name" : "Tech House",  "type" : "G" },
{  "_id" : ObjectId("623c48befb94542a7c070303"),  "name" : "Tech Trance",  "type" : "G" },
{  "_id" : ObjectId("623c48befb94542a7c070304"),  "name" : "Techno",  "type" : "G" },
{  "_id" : ObjectId("623c48befb94542a7c070305"),  "name" : "Techstep",  "type" : "G" },
{  "_id" : ObjectId("623c48befb94542a7c070306"),  "name" : "Trance",  "type" : "G" },
{  "_id" : ObjectId("623c48befb94542a7c070307"),  "name" : "Trap",  "type" : "G" },
{  "_id" : ObjectId("623c48befb94542a7c070308"),  "name" : "Tribal",  "type" : "D" },
{  "_id" : ObjectId("623c48befb94542a7c070309"),  "name" : "Trip Hop",  "type" : "G" },
{  "_id" : ObjectId("623c48befb94542a7c07030a"),  "name" : "Trippy",  "type" : "D" },
{  "_id" : ObjectId("623c48befb94542a7c07030b"),  "name" : "Turnbalism",  "type" : "G" },
{  "_id" : ObjectId("623c48befb94542a7c07030c"),  "name" : "Twilight",  "type" : "G" },
{  "_id" : ObjectId("623c48befb94542a7c07030d"),  "name" : "UK Garage",  "type" : "G" },
{  "_id" : ObjectId("623c48befb94542a7c07030e"),  "name" : "Uplifting Trance",  "type" : "G" },
{  "_id" : ObjectId("623c48befb94542a7c07030f"),  "name" : "Vaporwave",  "type" : "G" },
{  "_id" : ObjectId("623c48befb94542a7c070310"),  "name" : "Video Game Music",  "type" : "G" },
{  "_id" : ObjectId("623c48befb94542a7c070311"),  "name" : "Vinyl",  "type" : "S" },
{  "_id" : ObjectId("623c48befb94542a7c070312"),  "name" : "Vocal",  "type" : "G" },
{  "_id" : ObjectId("623c48befb94542a7c070313"),  "name" : "Warm",  "type" : "D" },
{  "_id" : ObjectId("623c48befb94542a7c070314"),  "name" : "Web",  "type" : "S" },
{  "_id" : ObjectId("623c48befb94542a7c070315"),  "name" : "Witch House",  "type" : "G" },
{  "_id" : ObjectId("623c48befb94542a7c070316"),  "name" : "Wonky",  "type" : "G" }]
