[{  "_id" : ObjectId("623ebe2eac9ab90df984c397"),  "release_id" : 1,  "moderation" : "",  "timestamp" : "2022-03-04 23:00:00",  "user_id_insert" : 21885,  "user_id_update" : 0,  "remark" : "",  "artist" : "#####",  "name" : "#####",  "release_year" : "2014",  "release_month" : "1",  "release_day" : "0",  "label" : "No 'Label'",  "weblink" : "http://www.discogs.com/release/5318159",  "tags" : [ "House", "Techno" ] },
{  "_id" : ObjectId("623ebe2eac9ab90df984c398"),  "release_id" : 2,  "moderation" : "",  "timestamp" : "2022-03-04 23:00:00",  "user_id_insert" : 45684,  "user_id_update" : 0,  "remark" : "",  "artist" : "#.19.21.3.11.21.20",  "name" : "Frozen Border 11",  "release_year" : "2012",  "release_month" : "5",  "release_day" : "0",  "label" : "Frozen Border",  "weblink" : "http://www.discogs.com/release/3592849",  "tags" : [ "Techno" ] },
{  "_id" : ObjectId("623ebe2eac9ab90df984c399"),  "release_id" : 3,  "moderation" : "",  "timestamp" : "2022-03-04 23:00:00",  "user_id_insert" : 21885,  "user_id_update" : 0,  "remark" : "",  "artist" : "#.19.21.3.11.21.20",  "name" : "Horizontal Ground 15",  "release_year" : "2013",  "release_month" : "11",  "release_day" : "0",  "label" : "Horizontal Ground",  "weblink" : "http://www.discogs.com/release/5091575",  "tags" : [ "Techno" ] },
{  "_id" : ObjectId("623ebe2eac9ab90df984c39a"),  "release_id" : 4,  "moderation" : "",  "timestamp" : "2022-03-04 23:00:00",  "user_id_insert" : 71501,  "user_id_update" : 0,  "remark" : "",  "artist" : "#.4.26.",  "name" : "Fb05",  "release_year" : "2010",  "release_month" : "7",  "release_day" : "0",  "label" : "Frozen Border",  "weblink" : "https://www.discogs.com/release/2362699",  "tags" : [ "Techno" ] },
{  "_id" : ObjectId("623ebe2eac9ab90df984c39b"),  "release_id" : 5,  "moderation" : "",  "timestamp" : "2022-03-04 23:00:00",  "user_id_insert" : 1855,  "user_id_update" : 0,  "remark" : "",  "artist" : "#.4.26.",  "name" : "Frozen Border 06",  "release_year" : "2010",  "release_month" : "7",  "release_day" : "0",  "label" : "Frozen Border",  "weblink" : "https://www.discogs.com/release/2371956",  "tags" : [ "Techno" ] },
{  "_id" : ObjectId("623ebe2eac9ab90df984c39c"),  "release_id" : 6,  "moderation" : "",  "timestamp" : "2022-03-04 23:00:00",  "user_id_insert" : 71501,  "user_id_update" : 0,  "remark" : "",  "artist" : "#.4.26.",  "name" : "Frozen Border 10",  "release_year" : "2011",  "release_month" : "11",  "release_day" : "0",  "label" : "Frozen Border",  "weblink" : "https://www.discogs.com/release/4701767",  "tags" : [ "Minimal", "Techno" ] },
{  "_id" : ObjectId("623ebe2eac9ab90df984c39d"),  "release_id" : 7,  "moderation" : "",  "timestamp" : "2022-03-04 23:00:00",  "user_id_insert" : 71501,  "user_id_update" : 0,  "remark" : "",  "artist" : "#.4.26.",  "name" : "Frozen Border 13",  "release_year" : "2013",  "release_month" : "6",  "release_day" : "0",  "label" : "Frozen Border",  "weblink" : "https://www.discogs.com/release/4673754",  "tags" : [ "Techno" ] },
{  "_id" : ObjectId("623ebe2eac9ab90df984c39e"),  "release_id" : 8,  "moderation" : "",  "timestamp" : "2022-03-04 23:00:00",  "user_id_insert" : 45684,  "user_id_update" : 0,  "remark" : "",  "artist" : "#.4.26.",  "name" : "Frozen Border 9",  "release_year" : "2011",  "release_month" : "11",  "release_day" : "30",  "label" : "Frozen Border",  "weblink" : "https://www.discogs.com/release/4701757",  "tags" : [ "Minimal", "Techno" ] },
{  "_id" : ObjectId("623ebe2eac9ab90df984c39f"),  "release_id" : 9,  "moderation" : "",  "timestamp" : "2022-03-04 23:00:00",  "user_id_insert" : 39834,  "user_id_update" : 0,  "remark" : "",  "artist" : "#.4.26.",  "name" : "MDR 24",  "release_year" : "2018",  "release_month" : "2",  "release_day" : "9",  "label" : "Marcel Dettmann Records",  "weblink" : "https://www.beatport.com/release/mdr-24/2215560",  "tags" : [ "Techno" ] },
{  "_id" : ObjectId("623ebe2eac9ab90df984c3a0"),  "release_id" : 10,  "moderation" : "",  "timestamp" : "2022-03-04 23:00:00",  "user_id_insert" : 69885,  "user_id_update" : 0,  "remark" : "",  "artist" : "&#036;&#036;&#036;TAG&#036;&#036;&#036;",  "name" : "Crowd Surfing",  "release_year" : "2016",  "release_month" : "2",  "release_day" : "4",  "label" : "Opal Tapes",  "weblink" : "http://opaltapes.bandcamp.com/album/tag-crowd-surfing",  "tags" : [ "Experimental", "Techno" ] },
{  "_id" : ObjectId("623ebe2eac9ab90df984c3a1"),  "release_id" : 11,  "moderation" : "",  "timestamp" : "2022-03-04 23:00:00",  "user_id_insert" : 70685,  "user_id_update" : 0,  "remark" : "",  "artist" : "&#036;tinkworx",  "name" : "Mnml 808",  "release_year" : "2001",  "release_month" : "0",  "release_day" : "0",  "label" : "Bunker Records",  "weblink" : "http://www.discogs.com/release/69827",  "tags" : [ "Disco", "Electro" ] },
{  "_id" : ObjectId("623ebe2eac9ab90df984c3a2"),  "release_id" : 12,  "moderation" : "",  "timestamp" : "2022-03-04 23:00:00",  "user_id_insert" : 70685,  "user_id_update" : 0,  "remark" : "",  "artist" : "$tinkworx",  "name" : "Pistrix Et Machina",  "release_year" : "2001",  "release_month" : "0",  "release_day" : "0",  "label" : "Bunker Records",  "weblink" : "http://www.discogs.com/release/65946",  "tags" : [ "Electro", "Techno" ] },
{  "_id" : ObjectId("623ebe2eac9ab90df984c3a3"),  "release_id" : 13,  "moderation" : "",  "timestamp" : "2022-03-04 23:00:00",  "user_id_insert" : 46264,  "user_id_update" : 0,  "remark" : "",  "artist" : "!!!",  "name" : "Wallop",  "release_year" : "2019",  "release_month" : "8",  "release_day" : "30",  "label" : "Warp Records",  "weblink" : "https://www.discogs.com/release/14061548",  "tags" : [ "Disco", "Indie" ] },
{  "_id" : ObjectId("623ebe2eac9ab90df984c3a4"),  "release_id" : 14,  "moderation" : "",  "timestamp" : "2022-03-04 23:00:00",  "user_id_insert" : 25540,  "user_id_update" : 0,  "remark" : "",  "artist" : "'Little Louie' Vega",  "name" : "Gatecrasher: The Summer Sound System 2002",  "release_year" : "2002",  "release_month" : "7",  "release_day" : "0",  "label" : "Ministry (Magazine)",  "weblink" : "http://www.discogs.com/release/53498",  "tags" : [ "House", "Latin" ] },
{  "_id" : ObjectId("623ebe2eac9ab90df984c3a5"),  "release_id" : 15,  "moderation" : "",  "timestamp" : "2022-03-04 23:00:00",  "user_id_insert" : 12257,  "user_id_update" : 0,  "remark" : "",  "artist" : "&lez",  "name" : "Kevlar",  "release_year" : "2020",  "release_month" : "1",  "release_day" : "17",  "label" : "JEAHMON!",  "weblink" : "https://www.beatport.com/release/kevlar/2807272",  "tags" : [ "House" ] },
{  "_id" : ObjectId("623ebe2eac9ab90df984c3a6"),  "release_id" : 16,  "moderation" : "",  "timestamp" : "2022-03-04 23:00:00",  "user_id_insert" : 69874,  "user_id_update" : 0,  "remark" : "",  "artist" : "&lez",  "name" : "Mantara",  "release_year" : "2014",  "release_month" : "1",  "release_day" : "29",  "label" : "Maintain Replay Records",  "weblink" : "http://www.beatport.com/release/mantara/1232129",  "tags" : [ "Deep", "House", "Tech House" ] },
{  "_id" : ObjectId("623ebe2eac9ab90df984c3a7"),  "release_id" : 17,  "moderation" : "",  "timestamp" : "2022-03-04 23:00:00",  "user_id_insert" : 38406,  "user_id_update" : 0,  "remark" : "",  "artist" : "&ME",  "name" : "After Dark",  "release_year" : "2014",  "release_month" : "6",  "release_day" : "24",  "label" : "Keinemusik / Keinemusik",  "weblink" : "http://www.discogs.com/release/5825361",  "tags" : [ "Minimal", "Tech House" ] },
{  "_id" : ObjectId("623ebe2eac9ab90df984c3a8"),  "release_id" : 18,  "moderation" : "",  "timestamp" : "2022-03-04 23:00:00",  "user_id_insert" : 67318,  "user_id_update" : 0,  "remark" : "",  "artist" : "&ME",  "name" : "F.I.R. / +++",  "release_year" : "2009",  "release_month" : "4",  "release_day" : "30",  "label" : "Keinemusik",  "weblink" : "http://www.discogs.com/release/3324754",  "tags" : [ "Minimal", "Tech House" ] },
{  "_id" : ObjectId("623ebe2eac9ab90df984c3a9"),  "release_id" : 19,  "moderation" : "",  "timestamp" : "2022-03-04 23:00:00",  "user_id_insert" : 70966,  "user_id_update" : 0,  "remark" : "",  "artist" : "&ME",  "name" : "Shadows",  "release_year" : "2016",  "release_month" : "4",  "release_day" : "1",  "label" : "Saved Records",  "weblink" : "https://www.beatport.com/release/shadows/1733099",  "tags" : [ "Tech House" ] },
{  "_id" : ObjectId("623ebe2eac9ab90df984c3aa"),  "release_id" : 20,  "moderation" : "",  "timestamp" : "2022-03-04 23:00:00",  "user_id_insert" : 45346,  "user_id_update" : 0,  "remark" : "",  "artist" : "&ME",  "name" : "The Rapture Pt.II",  "release_year" : "2018",  "release_month" : "11",  "release_day" : "23",  "label" : "Keinemusik",  "weblink" : "https://www.beatport.com/release/the-rapture-pt-ii/2431668",  "tags" : [ "Deep", "House" ] },
{  "_id" : ObjectId("623ebe2eac9ab90df984c3ab"),  "release_id" : 21,  "moderation" : "",  "timestamp" : "2022-03-04 23:00:00",  "user_id_insert" : 55194,  "user_id_update" : 0,  "remark" : "",  "artist" : "&Me",  "name" : "Trilogy Ep",  "release_year" : "2015",  "release_month" : "7",  "release_day" : "0",  "label" : "Keinemusik",  "weblink" : "http://www.discogs.com/release/7237463",  "tags" : [ "Tech House" ] },
{  "_id" : ObjectId("623ebe2eac9ab90df984c3ac"),  "release_id" : 22,  "moderation" : "",  "timestamp" : "2022-03-04 23:00:00",  "user_id_insert" : 43525,  "user_id_update" : 0,  "remark" : "",  "artist" : "\"M\"",  "name" : "More Drama",  "release_year" : "1997",  "release_month" : "0",  "release_day" : "0",  "label" : "Axis",  "weblink" : "http://www.discogs.com/release/111",  "tags" : [ "Techno" ] },
{  "_id" : ObjectId("623ebe2eac9ab90df984c3ad"),  "release_id" : 23,  "moderation" : "",  "timestamp" : "2022-03-04 23:00:00",  "user_id_insert" : 27764,  "user_id_update" : 0,  "remark" : "",  "artist" : "(((shwex)))",  "name" : "Falling Into Place EP",  "release_year" : "2011",  "release_month" : "3",  "release_day" : "1",  "label" : "Self Released",  "weblink" : "http://shwex.bandcamp.com/album/falling-into-place-ep",  "tags" : [ "Downtempo", "IDM" ] },
{  "_id" : ObjectId("623ebe2eac9ab90df984c3ae"),  "release_id" : 24,  "moderation" : "",  "timestamp" : "2022-03-04 23:00:00",  "user_id_insert" : 27764,  "user_id_update" : 0,  "remark" : "",  "artist" : "(ghost)",  "name" : "Departure",  "release_year" : "2013",  "release_month" : "4",  "release_day" : "9",  "label" : "n5MD",  "weblink" : "http://www.discogs.com/release/4443574",  "tags" : [ "Downtempo", "IDM" ] },
{  "_id" : ObjectId("623ebe2eac9ab90df984c3af"),  "release_id" : 25,  "moderation" : "",  "timestamp" : "2022-03-04 23:00:00",  "user_id_insert" : 27764,  "user_id_update" : 0,  "remark" : "",  "artist" : "(ghost)",  "name" : "Everything We Touch Turns To Dust",  "release_year" : "2017",  "release_month" : "6",  "release_day" : "2",  "label" : "n5MD",  "weblink" : "https://www.discogs.com/release/10388857",  "tags" : [ "Electro", "Experimental", "IDM" ] },
{  "_id" : ObjectId("623ebe2eac9ab90df984c3b0"),  "release_id" : 26,  "moderation" : "",  "timestamp" : "2022-03-04 23:00:00",  "user_id_insert" : 28061,  "user_id_update" : 0,  "remark" : "",  "artist" : "(ghost)",  "name" : "The First Time You Opened Your Eyes",  "release_year" : "2016",  "release_month" : "9",  "release_day" : "1",  "label" : "Sound In Silence",  "weblink" : "https://www.discogs.com/release/8986582",  "tags" : [ "Ambient" ] },
{  "_id" : ObjectId("623ebe2eac9ab90df984c3b1"),  "release_id" : 27,  "moderation" : "",  "timestamp" : "2022-03-04 23:00:00",  "user_id_insert" : 61270,  "user_id_update" : 0,  "remark" : "",  "artist" : "+verb",  "name" : "Hidden Adventures",  "release_year" : "2013",  "release_month" : "3",  "release_day" : "15",  "label" : "self released",  "weblink" : "http://verb.bandcamp.com/album/hidden-adventures",  "tags" : [ "Bass", "Glitch Hop", "Trap" ] },
{  "_id" : ObjectId("623ebe2eac9ab90df984c3b2"),  "release_id" : 28,  "moderation" : "",  "timestamp" : "2022-03-04 23:00:00",  "user_id_insert" : 61270,  "user_id_update" : 0,  "remark" : "",  "artist" : "+Verb",  "name" : "Neon Comets EP",  "release_year" : "2012",  "release_month" : "11",  "release_day" : "4",  "label" : "none (+verb self release)",  "weblink" : "http://verb.bandcamp.com/album/neon-comets-ep",  "tags" : [ "Glitch Hop", "Trap" ] },
{  "_id" : ObjectId("623ebe2eac9ab90df984c3b3"),  "release_id" : 29,  "moderation" : "",  "timestamp" : "2022-03-04 23:00:00",  "user_id_insert" : 63916,  "user_id_update" : 0,  "remark" : "",  "artist" : "+verb",  "name" : "Sensual Frequencies",  "release_year" : "2010",  "release_month" : "10",  "release_day" : "11",  "label" : "Car Crash Set",  "weblink" : "http://www.discogs.com/release/2495405",  "tags" : [ "Bass", "Dubstep", "Experimental", "Hip Hop" ] },
{  "_id" : ObjectId("623ebe2eac9ab90df984c3b4"),  "release_id" : 30,  "moderation" : "",  "timestamp" : "2022-03-04 23:00:00",  "user_id_insert" : 43777,  "user_id_update" : 0,  "remark" : "",  "artist" : "+verb",  "name" : "Solar Heat Traveler",  "release_year" : "2011",  "release_month" : "3",  "release_day" : "29",  "label" : "Vermin Street",  "weblink" : "https://www.discogs.com/release/3181105",  "tags" : [ "Chiptune", "Dubstep", "IDM" ] },
{  "_id" : ObjectId("623ebe2eac9ab90df984c3b5"),  "release_id" : 31,  "moderation" : "",  "timestamp" : "2022-03-04 23:00:00",  "user_id_insert" : 43777,  "user_id_update" : 0,  "remark" : "",  "artist" : "+verb",  "name" : "Writing You Off / Problemz",  "release_year" : "2010",  "release_month" : "12",  "release_day" : "8",  "label" : "NA",  "weblink" : "http://verb.bandcamp.com/",  "tags" : [ "Dubstep", "Glitch Hop" ] },
{  "_id" : ObjectId("623ebe2eac9ab90df984c3b6"),  "release_id" : 32,  "moderation" : "",  "timestamp" : "2022-03-04 23:00:00",  "user_id_insert" : 1,  "user_id_update" : 0,  "remark" : "",  "artist" : "- Z -",  "name" : "Doodle's End",  "release_year" : "2015",  "release_month" : "1",  "release_day" : "19",  "label" : "Alice-D Records",  "weblink" : "https://www.discogs.com/release/6661760",  "tags" : [ "Hi-Tech", "PsyTrance" ] },
{  "_id" : ObjectId("623ebe2eac9ab90df984c3b7"),  "release_id" : 33,  "moderation" : "",  "timestamp" : "2022-03-04 23:00:00",  "user_id_insert" : 1,  "user_id_update" : 0,  "remark" : "",  "artist" : "- Z - ‎(Alpha & Antagon)",  "name" : "Gospodin - Extended Version",  "release_year" : "2012",  "release_month" : "7",  "release_day" : "25",  "label" : "Timecode / Sangoma",  "weblink" : "https://www.beatport.com/release/gospodin-extended-version/944390",  "tags" : [ "Darkpsy", "Hi-Tech", "PsyTrance" ] },
{  "_id" : ObjectId("623ebe2eac9ab90df984c3b8"),  "release_id" : 34,  "moderation" : "",  "timestamp" : "2022-03-04 23:00:00",  "user_id_insert" : 40539,  "user_id_update" : 0,  "remark" : "",  "artist" : "-=UHU=-",  "name" : "Ultra Sound Melodies",  "release_year" : "2009",  "release_month" : "2",  "release_day" : "28",  "label" : "Transient Force",  "weblink" : "http://www.discogs.com/release/1717700",  "tags" : [ "Electro" ] },
{  "_id" : ObjectId("623ebe2eac9ab90df984c3b9"),  "release_id" : 35,  "moderation" : "",  "timestamp" : "2022-03-04 23:00:00",  "user_id_insert" : 1,  "user_id_update" : 0,  "remark" : "",  "artist" : "-SCH-",  "name" : "A Kanális Alatt",  "release_year" : "2016",  "release_month" : "9",  "release_day" : "1",  "label" : "City Forest Records",  "weblink" : "https://www.discogs.com/release/9086490",  "tags" : [ "Ambient" ] },
{  "_id" : ObjectId("623ebe2eac9ab90df984c3ba"),  "release_id" : 36,  "moderation" : "",  "timestamp" : "2022-03-04 23:00:00",  "user_id_insert" : 71700,  "user_id_update" : 0,  "remark" : "",  "artist" : ".",  "name" : ".",  "release_year" : "2010",  "release_month" : "0",  "release_day" : "0",  "label" : "Zusammen Records",  "weblink" : "https://www.discogs.com/release/2099749",  "tags" : [ "Electro", "Experimental" ] },
{  "_id" : ObjectId("623ebe2eac9ab90df984c3bb"),  "release_id" : 37,  "moderation" : "",  "timestamp" : "2022-03-04 23:00:00",  "user_id_insert" : 48586,  "user_id_update" : 0,  "remark" : "",  "artist" : ".g",  "name" : "On The Raw Again",  "release_year" : "1998",  "release_month" : "0",  "release_day" : "0",  "label" : "Basic Recordings",  "weblink" : "https://www.discogs.com/release/36590",  "tags" : [ "Deep", "House" ] },
{  "_id" : ObjectId("623ebe2eac9ab90df984c3bc"),  "release_id" : 38,  "moderation" : "",  "timestamp" : "2022-03-04 23:00:00",  "user_id_insert" : 52976,  "user_id_update" : 0,  "remark" : "",  "artist" : ".g",  "name" : "The Raw EP",  "release_year" : "1997",  "release_month" : "0",  "release_day" : "0",  "label" : "Yellow Productions / Yellow Productions",  "weblink" : "http://www.discogs.com/release/51366",  "tags" : [ "Deep", "House", "Tech House" ] },
{  "_id" : ObjectId("623ebe2eac9ab90df984c3bd"),  "release_id" : 39,  "moderation" : "",  "timestamp" : "2022-03-04 23:00:00",  "user_id_insert" : 71024,  "user_id_update" : 0,  "remark" : "",  "artist" : ".xtrak",  "name" : "Multiplexor",  "release_year" : "1995",  "release_month" : "0",  "release_day" : "0",  "label" : "7th City",  "weblink" : "https://www.discogs.com/release/24836",  "tags" : [ "Techno" ] },
{  "_id" : ObjectId("623ebe2eac9ab90df984c3be"),  "release_id" : 40,  "moderation" : "",  "timestamp" : "2022-03-04 23:00:00",  "user_id_insert" : 69004,  "user_id_update" : 0,  "remark" : "",  "artist" : "//no",  "name" : "Untitled",  "release_year" : "2013",  "release_month" : "0",  "release_day" : "0",  "label" : "SUB (3)",  "weblink" : "http://www.discogs.com/release/4917889",  "tags" : [ "Abstract", "Dub Techno", "Dubstep" ] },
{  "_id" : ObjectId("623ebe2eac9ab90df984c3bf"),  "release_id" : 41,  "moderation" : "",  "timestamp" : "2022-03-04 23:00:00",  "user_id_insert" : 69885,  "user_id_update" : 0,  "remark" : "",  "artist" : "/DL/MS/",  "name" : "040 EP",  "release_year" : "2016",  "release_month" : "10",  "release_day" : "7",  "label" : "Pomelo Spain",  "weblink" : "http://www.junodownload.com/products/dl-ms-040-ep/3211409-02/",  "tags" : [ "Acid", "Techno" ] },
{  "_id" : ObjectId("623ebe2eac9ab90df984c3c0"),  "release_id" : 42,  "moderation" : "",  "timestamp" : "2022-03-04 23:00:00",  "user_id_insert" : 71700,  "user_id_update" : 0,  "remark" : "",  "artist" : "/I&#092;",  "name" : "The Flame Of The Sacred Wyvr",  "release_year" : "2012",  "release_month" : "0",  "release_day" : "0",  "label" : "Zusammen Records",  "weblink" : "https://www.discogs.com/release/3457752",  "tags" : [ "Electro", "Experimental" ] },
{  "_id" : ObjectId("623ebe2eac9ab90df984c3c1"),  "release_id" : 43,  "moderation" : "",  "timestamp" : "2022-03-04 23:00:00",  "user_id_insert" : 1,  "user_id_update" : 0,  "remark" : "",  "artist" : "00.db",  "name" : "Angels & Demons",  "release_year" : "2010",  "release_month" : "8",  "release_day" : "31",  "label" : "Joof Recordings",  "weblink" : "https://www.discogs.com/release/2422561",  "tags" : [ "Ambient", "Hard", "PsyTrance", "Trance" ] },
{  "_id" : ObjectId("623ebe2eac9ab90df984c3c2"),  "release_id" : 44,  "moderation" : "",  "timestamp" : "2022-03-04 23:00:00",  "user_id_insert" : 26245,  "user_id_update" : 0,  "remark" : "",  "artist" : "00.db",  "name" : "Heaven & Hell",  "release_year" : "2009",  "release_month" : "8",  "release_day" : "4",  "label" : "Moist Music",  "weblink" : "http://www.discogs.com/release/3943097",  "tags" : [ "Ambient", "Progressive Trance", "PsyTrance", "Trance" ] },
{  "_id" : ObjectId("623ebe2eac9ab90df984c3c3"),  "release_id" : 45,  "moderation" : "",  "timestamp" : "2022-03-04 23:00:00",  "user_id_insert" : 12257,  "user_id_update" : 0,  "remark" : "",  "artist" : "0010X0010",  "name" : "Inside Of You EP",  "release_year" : "2019",  "release_month" : "5",  "release_day" : "17",  "label" : "Alleanza",  "weblink" : "https://www.beatport.com/release/inside-of-you-ep/2581626",  "tags" : [ "Techno" ] },
{  "_id" : ObjectId("623ebe2eac9ab90df984c3c4"),  "release_id" : 46,  "moderation" : "",  "timestamp" : "2022-03-04 23:00:00",  "user_id_insert" : 1,  "user_id_update" : 0,  "remark" : "",  "artist" : "007",  "name" : "Undercover Agent E.P.",  "release_year" : "1994",  "release_month" : "0",  "release_day" : "0",  "label" : "Formation Records",  "weblink" : "http://www.discogs.com/release/1075451",  "tags" : [ "Jungle" ] },
{  "_id" : ObjectId("623ebe2eac9ab90df984c3c5"),  "release_id" : 47,  "moderation" : "",  "timestamp" : "2022-03-04 23:00:00",  "user_id_insert" : 1,  "user_id_update" : 0,  "remark" : "",  "artist" : "01-N",  "name" : "Chilloutism",  "release_year" : "2013",  "release_month" : "0",  "release_day" : "0",  "label" : "Bass Star Records",  "weblink" : "http://imageshack.us/photo/my-images/703/d0fa0c4812231d0aff80075.jpg/",  "tags" : [ "PsyTrance" ] },
{  "_id" : ObjectId("623ebe2eac9ab90df984c3c6"),  "release_id" : 48,  "moderation" : "",  "timestamp" : "2022-03-04 23:00:00",  "user_id_insert" : 21885,  "user_id_update" : 0,  "remark" : "",  "artist" : "04LM",  "name" : "Tragicaller",  "release_year" : "2014",  "release_month" : "2",  "release_day" : "3",  "label" : "Soma",  "weblink" : "https://whatimg.com/viewer.php?file=bbqUwM.jpg",  "tags" : [ "Techno" ] },
{  "_id" : ObjectId("623ebe2eac9ab90df984c3c7"),  "release_id" : 49,  "moderation" : "",  "timestamp" : "2022-03-04 23:00:00",  "user_id_insert" : 1855,  "user_id_update" : 0,  "remark" : "",  "artist" : "051 Destroyer",  "name" : "Nrol 39",  "release_year" : "2018",  "release_month" : "2",  "release_day" : "0",  "label" : "Lunar Orbiter Program",  "weblink" : "https://www.discogs.com/release/11560672",  "tags" : [ "Electro" ] },
{  "_id" : ObjectId("623ebe2eac9ab90df984c3c8"),  "release_id" : 50,  "moderation" : "",  "timestamp" : "2022-03-04 23:00:00",  "user_id_insert" : 71943,  "user_id_update" : 0,  "remark" : "",  "artist" : "0x7f",  "name" : "Worship The Machines",  "release_year" : "2008",  "release_month" : "12",  "release_day" : "12",  "label" : "31337 Records",  "weblink" : "https://www.discogs.com/release/1572119",  "tags" : [ "Minimal", "Techno" ] },
{  "_id" : ObjectId("623ebe2eac9ab90df984c3c9"),  "release_id" : 51,  "moderation" : "",  "timestamp" : "2022-03-04 23:00:00",  "user_id_insert" : 45198,  "user_id_update" : 0,  "remark" : "",  "artist" : "1 Giant Leap",  "name" : "1 Giant Leap",  "release_year" : "2001",  "release_month" : "0",  "release_day" : "0",  "label" : "Palm Pictures",  "weblink" : "http://www.discogs.com/release/67629",  "tags" : [ "Downtempo" ] },
{  "_id" : ObjectId("623ebe2eac9ab90df984c3ca"),  "release_id" : 52,  "moderation" : "",  "timestamp" : "2022-03-04 23:00:00",  "user_id_insert" : 59334,  "user_id_update" : 0,  "remark" : "",  "artist" : "1.8.7.",  "name" : "Quality Rolls (EP 4)",  "release_year" : "1998",  "release_month" : "0",  "release_day" : "0",  "label" : "Jungle Sky",  "weblink" : "https://www.discogs.com/release/171913",  "tags" : [ "Drum & Bass", "Jungle" ] },
{  "_id" : ObjectId("623ebe2eac9ab90df984c3cb"),  "release_id" : 53,  "moderation" : "",  "timestamp" : "2022-03-04 23:00:00",  "user_id_insert" : 15973,  "user_id_update" : 0,  "remark" : "",  "artist" : "10-20",  "name" : "Isthmus EP",  "release_year" : "2010",  "release_month" : "4",  "release_day" : "26",  "label" : "Highpoint Lowlife",  "weblink" : "http://boomkat.com/downloads/256536-10-20-isthmus",  "tags" : [ "IDM" ] },
{  "_id" : ObjectId("623ebe2eac9ab90df984c3cc"),  "release_id" : 54,  "moderation" : "",  "timestamp" : "2022-03-04 23:00:00",  "user_id_insert" : 0,  "user_id_update" : 0,  "remark" : "",  "artist" : "10-20",  "name" : "Mountain EP",  "release_year" : "2010",  "release_month" : "2",  "release_day" : "22",  "label" : "Highpoint Lowlife Records",  "weblink" : "https://www.beatport.com/en-US/html/content/release/detail/217672/mountain_ep",  "tags" : [ "Abstract", "IDM" ] },
{  "_id" : ObjectId("623ebe2eac9ab90df984c3cd"),  "release_id" : 55,  "moderation" : "",  "timestamp" : "2022-03-04 23:00:00",  "user_id_insert" : 15973,  "user_id_update" : 0,  "remark" : "",  "artist" : "1000names",  "name" : "Before Sunrise EP",  "release_year" : "2011",  "release_month" : "2",  "release_day" : "7",  "label" : "Black Acre",  "weblink" : "http://www.whatpeopleplay.com/?redirect=/albumdetails/null/id/34874",  "tags" : [ "Disco", "Downtempo" ] },
{  "_id" : ObjectId("623ebe2eac9ab90df984c3ce"),  "release_id" : 56,  "moderation" : "",  "timestamp" : "2022-03-04 23:00:00",  "user_id_insert" : 40450,  "user_id_update" : 0,  "remark" : "",  "artist" : "1000names",  "name" : "Illuminated Man",  "release_year" : "2010",  "release_month" : "6",  "release_day" : "0",  "label" : "Black Acre",  "weblink" : "http://www.discogs.com/release/2305812",  "tags" : [ "Experimental", "IDM" ] },
{  "_id" : ObjectId("623ebe2eac9ab90df984c3cf"),  "release_id" : 57,  "moderation" : "",  "timestamp" : "2022-03-04 23:00:00",  "user_id_insert" : 71183,  "user_id_update" : 0,  "remark" : "",  "artist" : "10dens",  "name" : "When The Skyline Crumbles",  "release_year" : "2011",  "release_month" : "4",  "release_day" : "12",  "label" : "Cinematique",  "weblink" : "https://www.discogs.com/release/2823252",  "tags" : [ "Progressive House", "Techno" ] },
{  "_id" : ObjectId("623ebe2eac9ab90df984c3d0"),  "release_id" : 58,  "moderation" : "",  "timestamp" : "2022-03-04 23:00:00",  "user_id_insert" : 46264,  "user_id_update" : 0,  "remark" : "",  "artist" : "10Th Letter",  "name" : "Ultra violence",  "release_year" : "2018",  "release_month" : "10",  "release_day" : "9",  "label" : "Greenbriar",  "weblink" : "https://10thletter.bandcamp.com/album/ultra-violence",  "tags" : [ "Abstract", "Downtempo", "Experimental" ] },
{  "_id" : ObjectId("623ebe2eac9ab90df984c3d1"),  "release_id" : 59,  "moderation" : "",  "timestamp" : "2022-03-04 23:00:00",  "user_id_insert" : 69508,  "user_id_update" : 0,  "remark" : "",  "artist" : "116 db",  "name" : "Sun & Earth EP",  "release_year" : "2014",  "release_month" : "4",  "release_day" : "16",  "label" : "We Are Here Music",  "weblink" : "http://www.beatport.com/release/116-db-sun-and-earth-ep/1286397",  "tags" : [ "Deep", "House" ] },
{  "_id" : ObjectId("623ebe2eac9ab90df984c3d2"),  "release_id" : 60,  "moderation" : "",  "timestamp" : "2022-03-04 23:00:00",  "user_id_insert" : 57909,  "user_id_update" : 0,  "remark" : "",  "artist" : "11th Street",  "name" : "Plastic Love / Billy Dream",  "release_year" : "2002",  "release_month" : "0",  "release_day" : "0",  "label" : "Not On Label (Street Series) / Not On Label (Street Series)",  "weblink" : "https://www.discogs.com/release/80916",  "tags" : [ "House" ] },
{  "_id" : ObjectId("623ebe2eac9ab90df984c3d3"),  "release_id" : 61,  "moderation" : "",  "timestamp" : "2022-03-04 23:00:00",  "user_id_insert" : 1,  "user_id_update" : 0,  "remark" : "",  "artist" : "12 Stories",  "name" : "Night Obscure EP",  "release_year" : "2015",  "release_month" : "10",  "release_day" : "23",  "label" : "Hot Creations",  "weblink" : "http://www.discogs.com/release/7667337",  "tags" : [ "Tech House" ] },
{  "_id" : ObjectId("623ebe2eac9ab90df984c3d4"),  "release_id" : 62,  "moderation" : "",  "timestamp" : "2022-03-04 23:00:00",  "user_id_insert" : 40539,  "user_id_update" : 0,  "remark" : "",  "artist" : "12 To 30",  "name" : "Orchestral Dimensions",  "release_year" : "2015",  "release_month" : "11",  "release_day" : "12",  "label" : "Sistrum Recordings",  "weblink" : "http://www.discogs.com/release/7719723",  "tags" : [ "Deep", "House", "Techno" ] },
{  "_id" : ObjectId("623ebe2eac9ab90df984c3d5"),  "release_id" : 63,  "moderation" : "",  "timestamp" : "2022-03-04 23:00:00",  "user_id_insert" : 62207,  "user_id_update" : 0,  "remark" : "",  "artist" : "1200 Mic's",  "name" : "1200 Mic's",  "release_year" : "2013",  "release_month" : "11",  "release_day" : "29",  "label" : "TIP Records",  "weblink" : "http://www.discogs.com/release/5164601",  "tags" : [ "PsyTrance" ] },
{  "_id" : ObjectId("623ebe2eac9ab90df984c3d6"),  "release_id" : 64,  "moderation" : "",  "timestamp" : "2022-03-04 23:00:00",  "user_id_insert" : 62207,  "user_id_update" : 0,  "remark" : "",  "artist" : "1200 Mic's",  "name" : "A Trip Inside The Outside",  "release_year" : "2013",  "release_month" : "11",  "release_day" : "19",  "label" : "TIP Records",  "weblink" : "http://www.discogs.com/release/5126757",  "tags" : [ "PsyTrance" ] },
{  "_id" : ObjectId("623ebe2eac9ab90df984c3d7"),  "release_id" : 65,  "moderation" : "",  "timestamp" : "2022-03-04 23:00:00",  "user_id_insert" : 48510,  "user_id_update" : 0,  "remark" : "",  "artist" : "1200 Mic's",  "name" : "Magic Numbers",  "release_year" : "2007",  "release_month" : "5",  "release_day" : "0",  "label" : "TIP.World",  "weblink" : "http://www.discogs.com/release/985100",  "tags" : [ "PsyTrance" ] },
{  "_id" : ObjectId("623ebe2eac9ab90df984c3d8"),  "release_id" : 66,  "moderation" : "",  "timestamp" : "2022-03-04 23:00:00",  "user_id_insert" : 0,  "user_id_update" : 0,  "remark" : "",  "artist" : "1200 Micrograms",  "name" : "1200 Micrograms",  "release_year" : "2002",  "release_month" : "9",  "release_day" : "30",  "label" : "TIP.World",  "weblink" : "http://www.discogs.com/release/59154",  "tags" : [ "PsyTrance" ] },
{  "_id" : ObjectId("623ebe2eac9ab90df984c3d9"),  "release_id" : 67,  "moderation" : "",  "timestamp" : "2022-03-04 23:00:00",  "user_id_insert" : 70972,  "user_id_update" : 0,  "remark" : "",  "artist" : "1200 Micrograms",  "name" : "Heroes Of The Imagination",  "release_year" : "2003",  "release_month" : "10",  "release_day" : "0",  "label" : "TIP.World",  "weblink" : "https://www.discogs.com/release/198797",  "tags" : [ "PsyTrance" ] },
{  "_id" : ObjectId("623ebe2eac9ab90df984c3da"),  "release_id" : 68,  "moderation" : "",  "timestamp" : "2022-03-04 23:00:00",  "user_id_insert" : 62207,  "user_id_update" : 0,  "remark" : "",  "artist" : "1200 Micrograms",  "name" : "Shivas India",  "release_year" : "2014",  "release_month" : "1",  "release_day" : "28",  "label" : "TIP Records",  "weblink" : "http://www.discogs.com/release/5339973",  "tags" : [ "Goa Trance" ] },
{  "_id" : ObjectId("623ebe2eac9ab90df984c3db"),  "release_id" : 69,  "moderation" : "",  "timestamp" : "2022-03-04 23:00:00",  "user_id_insert" : 1,  "user_id_update" : 0,  "remark" : "",  "artist" : "1200 Micrograms",  "name" : "The Changa Sessions",  "release_year" : "2015",  "release_month" : "0",  "release_day" : "0",  "label" : "TIP Records",  "weblink" : "https://www.discogs.com/release/7297149",  "tags" : [ "Full-On", "PsyTrance" ] },
{  "_id" : ObjectId("623ebe2eac9ab90df984c3dc"),  "release_id" : 70,  "moderation" : "",  "timestamp" : "2022-03-04 23:00:00",  "user_id_insert" : 71889,  "user_id_update" : 0,  "remark" : "",  "artist" : "1200 Micrograms",  "name" : "The Time Machine",  "release_year" : "2004",  "release_month" : "12",  "release_day" : "1",  "label" : "TIP.World",  "weblink" : "https://www.discogs.com/release/356216",  "tags" : [ "PsyTrance" ] },
{  "_id" : ObjectId("623ebe2eac9ab90df984c3dd"),  "release_id" : 71,  "moderation" : "",  "timestamp" : "2022-03-04 23:00:00",  "user_id_insert" : 41791,  "user_id_update" : 0,  "remark" : "",  "artist" : "1200 Mics",  "name" : "96%",  "release_year" : "2012",  "release_month" : "1",  "release_day" : "24",  "label" : "TIP Records",  "weblink" : "http://www.discogs.com/release/3380940",  "tags" : [ "PsyTrance" ] },
{  "_id" : ObjectId("623ebe2eac9ab90df984c3de"),  "release_id" : 72,  "moderation" : "",  "timestamp" : "2022-03-04 23:00:00",  "user_id_insert" : 70972,  "user_id_update" : 0,  "remark" : "",  "artist" : "1200 Mics",  "name" : "Live In Brazil",  "release_year" : "2005",  "release_month" : "9",  "release_day" : "5",  "label" : "TIP.World",  "weblink" : "https://www.discogs.com/release/540015",  "tags" : [ "PsyTrance" ] },
{  "_id" : ObjectId("623ebe2eac9ab90df984c3df"),  "release_id" : 73,  "moderation" : "",  "timestamp" : "2022-03-04 23:00:00",  "user_id_insert" : 71987,  "user_id_update" : 0,  "remark" : "",  "artist" : "12th Planet",  "name" : "12th Planet Remixed",  "release_year" : "2017",  "release_month" : "7",  "release_day" : "27",  "label" : "SMOG",  "weblink" : "https://www.beatport.com/release/12th-planet-remixed/2079045",  "tags" : [ "Dubstep" ] },
{  "_id" : ObjectId("623ebe2eac9ab90df984c3e0"),  "release_id" : 74,  "moderation" : "",  "timestamp" : "2022-03-04 23:00:00",  "user_id_insert" : 19219,  "user_id_update" : 0,  "remark" : "",  "artist" : "12th Planet",  "name" : "Element 16 (Sulfur) / Just Cool",  "release_year" : "2008",  "release_month" : "6",  "release_day" : "0",  "label" : "Argon",  "weblink" : "https://www.discogs.com/release/1323999",  "tags" : [ "Dubstep" ] },
{  "_id" : ObjectId("623ebe2eac9ab90df984c3e1"),  "release_id" : 75,  "moderation" : "",  "timestamp" : "2022-03-04 23:00:00",  "user_id_insert" : 47433,  "user_id_update" : 0,  "remark" : "",  "artist" : "12th Planet",  "name" : "The End",  "release_year" : "2012",  "release_month" : "12",  "release_day" : "12",  "label" : "Smog",  "weblink" : "http://www.junodownload.com/products/12th-planet-the-end/2096804-02/",  "tags" : [ "Dubstep" ] },
{  "_id" : ObjectId("623ebe2eac9ab90df984c3e2"),  "release_id" : 76,  "moderation" : "",  "timestamp" : "2022-03-04 23:00:00",  "user_id_insert" : 39323,  "user_id_update" : 0,  "remark" : "",  "artist" : "12th Planet & Lumberjvck",  "name" : "Name Bran",  "release_year" : "2016",  "release_month" : "1",  "release_day" : "18",  "label" : "Smog Records",  "weblink" : "https://www.beatport.com/release/name-bran/1691857",  "tags" : [ "Dubstep" ] },
{  "_id" : ObjectId("623ebe2eac9ab90df984c3e3"),  "release_id" : 77,  "moderation" : "",  "timestamp" : "2022-03-04 23:00:00",  "user_id_insert" : 19219,  "user_id_update" : 0,  "remark" : "",  "artist" : "12th Planet / Mac Koall",  "name" : "28 Hours Later / The Rasta Core",  "release_year" : "2008",  "release_month" : "3",  "release_day" : "10",  "label" : "Redvolume",  "weblink" : "http://www.discogs.com/release/1268566",  "tags" : [ "Dubstep" ] },
{  "_id" : ObjectId("623ebe2eac9ab90df984c3e4"),  "release_id" : 78,  "moderation" : "",  "timestamp" : "2022-03-04 23:00:00",  "user_id_insert" : 46722,  "user_id_update" : 0,  "remark" : "",  "artist" : "13&goD",  "name" : "13 & GoD",  "release_year" : "2005",  "release_month" : "4",  "release_day" : "18",  "label" : "Anticon / Alien Transistor",  "weblink" : "http://www.discogs.com/release/438812",  "tags" : [ "Experimental", "Leftfield" ] },
{  "_id" : ObjectId("623ebe2eac9ab90df984c3e5"),  "release_id" : 79,  "moderation" : "",  "timestamp" : "2022-03-04 23:00:00",  "user_id_insert" : 69885,  "user_id_update" : 0,  "remark" : "",  "artist" : "14anger & Dep Affect",  "name" : "Transcendence On Demand EP",  "release_year" : "2016",  "release_month" : "1",  "release_day" : "12",  "label" : "Tripalium Records",  "weblink" : "https://tripalium.bandcamp.com/album/trip001-transcendence-on-demand-ep",  "tags" : [ "Techno" ] },
{  "_id" : ObjectId("623ebe2eac9ab90df984c3e6"),  "release_id" : 80,  "moderation" : "",  "timestamp" : "2022-03-04 23:00:00",  "user_id_insert" : 69885,  "user_id_update" : 0,  "remark" : "",  "artist" : "14anger & Dep Affect",  "name" : "Weather Machine EP",  "release_year" : "2016",  "release_month" : "3",  "release_day" : "30",  "label" : "Green Fetish",  "weblink" : "http://www.junodownload.com/products/14anger-dep-affect-weather-machine-ep/3049585-02/",  "tags" : [ "Techno" ] },
{  "_id" : ObjectId("623ebe2eac9ab90df984c3e7"),  "release_id" : 81,  "moderation" : "",  "timestamp" : "2022-03-04 23:00:00",  "user_id_insert" : 52050,  "user_id_update" : 0,  "remark" : "",  "artist" : "14anger & Peuch",  "name" : "Like Dust",  "release_year" : "2015",  "release_month" : "2",  "release_day" : "11",  "label" : "Morforecs",  "weblink" : "https://www.beatport.com/release/like-dust/1468884",  "tags" : [ "Techno" ] },
{  "_id" : ObjectId("623ebe2eac9ab90df984c3e8"),  "release_id" : 82,  "moderation" : "",  "timestamp" : "2022-03-04 23:00:00",  "user_id_insert" : 47001,  "user_id_update" : 0,  "remark" : "",  "artist" : "14KT",  "name" : "The Golden Hour",  "release_year" : "2008",  "release_month" : "10",  "release_day" : "14",  "label" : "A•Side Worldwide",  "weblink" : "http://www.discogs.com/release/1502064",  "tags" : [ "Funk", "Hip Hop", "Soul" ] },
{  "_id" : ObjectId("623ebe2eac9ab90df984c3e9"),  "release_id" : 83,  "moderation" : "",  "timestamp" : "2022-03-04 23:00:00",  "user_id_insert" : 43525,  "user_id_update" : 0,  "remark" : "",  "artist" : "154",  "name" : "Dusk EP",  "release_year" : "1996",  "release_month" : "0",  "release_day" : "0",  "label" : "100% Pure",  "weblink" : "http://www.discogs.com/release/36893",  "tags" : [ "Abstract", "Ambient", "Techno" ] },
{  "_id" : ObjectId("623ebe2eac9ab90df984c3ea"),  "release_id" : 84,  "moderation" : "",  "timestamp" : "2022-03-04 23:00:00",  "user_id_insert" : 53610,  "user_id_update" : 0,  "remark" : "",  "artist" : "16 Bit",  "name" : "Chainsaw Calligraphy The Remixes",  "release_year" : "2010",  "release_month" : "0",  "release_day" : "0",  "label" : "Boka Records",  "weblink" : "http://www.discogs.com/release/2085667",  "tags" : [ "Dubstep" ] },
{  "_id" : ObjectId("623ebe2eac9ab90df984c3eb"),  "release_id" : 85,  "moderation" : "",  "timestamp" : "2022-03-04 23:00:00",  "user_id_insert" : 1,  "user_id_update" : 0,  "remark" : "",  "artist" : "16 Bit",  "name" : "In The Death Car EP",  "release_year" : "2009",  "release_month" : "2",  "release_day" : "0",  "label" : "Boka Records",  "weblink" : "https://www.discogs.com/release/1658738",  "tags" : [ "Dubstep" ] },
{  "_id" : ObjectId("623ebe2eac9ab90df984c3ec"),  "release_id" : 86,  "moderation" : "",  "timestamp" : "2022-03-04 23:00:00",  "user_id_insert" : 38371,  "user_id_update" : 0,  "remark" : "",  "artist" : "16 Bit",  "name" : "Put Ya Dirt Inside / Ford Fiesta",  "release_year" : "2008",  "release_month" : "0",  "release_day" : "0",  "label" : "Destpub",  "weblink" : "http://www.discogs.com/release/1517995",  "tags" : [ "Dubstep" ] },
{  "_id" : ObjectId("623ebe2eac9ab90df984c3ed"),  "release_id" : 87,  "moderation" : "",  "timestamp" : "2022-03-04 23:00:00",  "user_id_insert" : 70257,  "user_id_update" : 0,  "remark" : "",  "artist" : "16 Bit Lolita's",  "name" : "Supermarkt",  "release_year" : "2012",  "release_month" : "0",  "release_day" : "0",  "label" : "Open Gate Records",  "weblink" : "http://www.discogs.com/release/5167933",  "tags" : [ "Deep", "House", "Progressive House" ] },
{  "_id" : ObjectId("623ebe2eac9ab90df984c3ee"),  "release_id" : 88,  "moderation" : "",  "timestamp" : "2022-03-04 23:00:00",  "user_id_insert" : 65832,  "user_id_update" : 0,  "remark" : "",  "artist" : "16 Bit Lolita's",  "name" : "Take My Life / Put It In",  "release_year" : "2004",  "release_month" : "5",  "release_day" : "0",  "label" : "Deep Records",  "weblink" : "http://www.beatport.com/release/take-my-life-put-it-in/27729",  "tags" : [ "Progressive House" ] },
{  "_id" : ObjectId("623ebe2eac9ab90df984c3ef"),  "release_id" : 89,  "moderation" : "",  "timestamp" : "2022-03-04 23:00:00",  "user_id_insert" : 28092,  "user_id_update" : 0,  "remark" : "",  "artist" : "16 Bit Lolitas",  "name" : "Beat Organ EP",  "release_year" : "2014",  "release_month" : "5",  "release_day" : "5",  "label" : "Anjunadeep",  "weblink" : "http://www.discogs.com/release/5662966",  "tags" : [ "Deep", "House", "Progressive House" ] },
{  "_id" : ObjectId("623ebe2eac9ab90df984c3f0"),  "release_id" : 90,  "moderation" : "",  "timestamp" : "2022-03-04 23:00:00",  "user_id_insert" : 70257,  "user_id_update" : 0,  "remark" : "",  "artist" : "16 Bit Lolitas",  "name" : "Bits and Pieces - Best of 2012",  "release_year" : "2013",  "release_month" : "1",  "release_day" : "4",  "label" : "Bits and Pieces",  "weblink" : "https://www.beatport.com/release/bits-and-pieces-best-of-2012/1010792",  "tags" : [ "Deep", "House", "Tech House" ] },
{  "_id" : ObjectId("623ebe2eac9ab90df984c3f1"),  "release_id" : 91,  "moderation" : "",  "timestamp" : "2022-03-04 23:00:00",  "user_id_insert" : 55194,  "user_id_update" : 0,  "remark" : "",  "artist" : "16 Bit Lolitas",  "name" : "Deep In My Soul EP",  "release_year" : "2014",  "release_month" : "9",  "release_day" : "1",  "label" : "Anjunadeep",  "weblink" : "http://www.discogs.com/release/6041459",  "tags" : [ "Deep", "Downtempo", "House", "Progressive House" ] },
{  "_id" : ObjectId("623ebe2eac9ab90df984c3f2"),  "release_id" : 92,  "moderation" : "",  "timestamp" : "2022-03-04 23:00:00",  "user_id_insert" : 0,  "user_id_update" : 0,  "remark" : "",  "artist" : "16 Bit Lolitas",  "name" : "Murder Weapon EP",  "release_year" : "2008",  "release_month" : "12",  "release_day" : "18",  "label" : "Anjunadeep",  "weblink" : "http://www.discogs.com/release/1572054",  "tags" : [ "Progressive House" ] },
{  "_id" : ObjectId("623ebe2eac9ab90df984c3f3"),  "release_id" : 93,  "moderation" : "",  "timestamp" : "2022-03-04 23:00:00",  "user_id_insert" : 41225,  "user_id_update" : 0,  "remark" : "",  "artist" : "16 Bit Lolitas",  "name" : "Peninsula EP",  "release_year" : "2017",  "release_month" : "5",  "release_day" : "12",  "label" : "Anjunadeep",  "weblink" : "https://www.discogs.com/release/10279078",  "tags" : [ "Deep", "House" ] },
{  "_id" : ObjectId("623ebe2eac9ab90df984c3f4"),  "release_id" : 94,  "moderation" : "",  "timestamp" : "2022-03-04 23:00:00",  "user_id_insert" : 15973,  "user_id_update" : 0,  "remark" : "",  "artist" : "16 Bit Lolitas",  "name" : "The Grynd EP",  "release_year" : "2011",  "release_month" : "2",  "release_day" : "22",  "label" : "Bits And Pieces",  "weblink" : "https://www.discogs.com/release/2956774",  "tags" : [ "Progressive House", "Techno" ] },
{  "_id" : ObjectId("623ebe2eac9ab90df984c3f5"),  "release_id" : 95,  "moderation" : "",  "timestamp" : "2022-03-04 23:00:00",  "user_id_insert" : 37140,  "user_id_update" : 0,  "remark" : "",  "artist" : "16 Bit Lolitas",  "name" : "The Rise/You Are An Astronaut",  "release_year" : "2011",  "release_month" : "10",  "release_day" : "31",  "label" : "Bits And Pieces",  "weblink" : "http://www.beatport.com/release/the-rise-you-are-an-astronaut/828724",  "tags" : [ "Progressive House" ] },
{  "_id" : ObjectId("623ebe2eac9ab90df984c3f6"),  "release_id" : 96,  "moderation" : "",  "timestamp" : "2022-03-04 23:00:00",  "user_id_insert" : 70257,  "user_id_update" : 0,  "remark" : "",  "artist" : "16 Bit Lolitas",  "name" : "Warung Brazil 001",  "release_year" : "2008",  "release_month" : "11",  "release_day" : "3",  "label" : "Hope Recordings",  "weblink" : "http://www.discogs.com/release/1515282",  "tags" : [ "House", "Progressive House" ] },
{  "_id" : ObjectId("623ebe2eac9ab90df984c3f7"),  "release_id" : 97,  "moderation" : "",  "timestamp" : "2022-03-04 23:00:00",  "user_id_insert" : 70257,  "user_id_update" : 0,  "remark" : "",  "artist" : "16 Bit Lolitas",  "name" : "Warung Brazil Presents: 16 Bit Lolitas",  "release_year" : "2008",  "release_month" : "11",  "release_day" : "3",  "label" : "Hope Recordings",  "weblink" : "https://www.beatport.com/release/warung-brazil-presents-16-bit-lolitas/142634",  "tags" : [ "Progressive House" ] },
{  "_id" : ObjectId("623ebe2eac9ab90df984c3f8"),  "release_id" : 98,  "moderation" : "",  "timestamp" : "2022-03-04 23:00:00",  "user_id_insert" : 1,  "user_id_update" : 0,  "remark" : "",  "artist" : "16 Bit Lolitas Presents Glowfield",  "name" : "Calling New York / 6 O'Clock (DAVI Remixes)",  "release_year" : "2012",  "release_month" : "4",  "release_day" : "20",  "label" : "Bits And Pieces",  "weblink" : "http://www.discogs.com/release/3578625",  "tags" : [ "Progressive House" ] },
{  "_id" : ObjectId("623ebe2eac9ab90df984c3f9"),  "release_id" : 99,  "moderation" : "",  "timestamp" : "2022-03-04 23:00:00",  "user_id_insert" : 59334,  "user_id_update" : 0,  "remark" : "",  "artist" : "16AJ",  "name" : "Tomorrow / Drug People",  "release_year" : "2015",  "release_month" : "10",  "release_day" : "24",  "label" : "Labelless Records",  "weblink" : "https://www.discogs.com/release/7640974",  "tags" : [ "Jungle" ] },
{  "_id" : ObjectId("623ebe2eac9ab90df984c3fa"),  "release_id" : 100,  "moderation" : "",  "timestamp" : "2022-03-04 23:00:00",  "user_id_insert" : 1,  "user_id_update" : 0,  "remark" : "",  "artist" : "16B",  "name" : "How To Live 100 Years",  "release_year" : "2002",  "release_month" : "10",  "release_day" : "14",  "label" : "Hooj Choons",  "weblink" : "http://www.discogs.com/release/58733",  "tags" : [ "House", "Progressive House" ] },
{  "_id" : ObjectId("623ebe2eac9ab90df984c3fb"),  "release_id" : 101,  "moderation" : "",  "timestamp" : "2022-03-04 23:00:00",  "user_id_insert" : 60452,  "user_id_update" : 0,  "remark" : "",  "artist" : "16B",  "name" : "Sex Dive",  "release_year" : "1995",  "release_month" : "0",  "release_day" : "0",  "label" : "Alola",  "weblink" : "https://www.discogs.com/release/41621",  "tags" : [ "House", "Tech House" ] },
{  "_id" : ObjectId("623ebe2eac9ab90df984c3fc"),  "release_id" : 102,  "moderation" : "",  "timestamp" : "2022-03-04 23:00:00",  "user_id_insert" : 70257,  "user_id_update" : 0,  "remark" : "",  "artist" : "16B",  "name" : "Sounds From Another Room",  "release_year" : "1998",  "release_month" : "0",  "release_day" : "0",  "label" : "Eye Q (UK)",  "weblink" : "http://www.discogs.com/release/11954",  "tags" : [ "Deep", "Future Jazz", "House", "Tech House" ] },
{  "_id" : ObjectId("623ebe2eac9ab90df984c3fd"),  "release_id" : 103,  "moderation" : "",  "timestamp" : "2022-03-04 23:00:00",  "user_id_insert" : 1,  "user_id_update" : 0,  "remark" : "",  "artist" : "16B",  "name" : "Water Ride (Mixes Part 2)",  "release_year" : "2014",  "release_month" : "12",  "release_day" : "29",  "label" : "Alola",  "weblink" : "http://www.junodownload.com/products/16b-omid-water-ride-mixes-part-2/2644619-02/",  "tags" : [ "Electro", "House" ] },
{  "_id" : ObjectId("623ebe2eac9ab90df984c3fe"),  "release_id" : 104,  "moderation" : "",  "timestamp" : "2022-03-04 23:00:00",  "user_id_insert" : 0,  "user_id_update" : 0,  "remark" : "",  "artist" : "16B feat. Morel",  "name" : "Escape (Driving To Heaven) (Disc One)",  "release_year" : "2001",  "release_month" : "10",  "release_day" : "29",  "label" : "Hooj Choons",  "weblink" : "http://www.discogs.com/release/29528",  "tags" : [ "Progressive House" ] },
{  "_id" : ObjectId("623ebe2eac9ab90df984c3ff"),  "release_id" : 105,  "moderation" : "",  "timestamp" : "2022-03-04 23:00:00",  "user_id_insert" : 0,  "user_id_update" : 0,  "remark" : "",  "artist" : "17th",  "name" : "Untitled",  "release_year" : "2004",  "release_month" : "6",  "release_day" : "0",  "label" : "17th",  "weblink" : "https://www.discogs.com/release/310520",  "tags" : [ "Tech House", "Techno" ] },
{  "_id" : ObjectId("623ebe2eac9ab90df984c400"),  "release_id" : 106,  "moderation" : "",  "timestamp" : "2022-03-04 23:00:00",  "user_id_insert" : 15078,  "user_id_update" : 0,  "remark" : "",  "artist" : "1800HaightStreet",  "name" : "Age",  "release_year" : "2019",  "release_month" : "2",  "release_day" : "1",  "label" : "Mörk",  "weblink" : "https://www.discogs.com/release/13184440",  "tags" : [ "Dub Techno", "Techno" ] },
{  "_id" : ObjectId("623ebe2eac9ab90df984c401"),  "release_id" : 107,  "moderation" : "",  "timestamp" : "2022-03-04 23:00:00",  "user_id_insert" : 21885,  "user_id_update" : 0,  "remark" : "",  "artist" : "1800HaightStreet",  "name" : "Endless",  "release_year" : "2017",  "release_month" : "10",  "release_day" : "27",  "label" : "Lobster Theremin",  "weblink" : "https://www.beatport.com/release/endless/2141937",  "tags" : [ "Techno" ] },
{  "_id" : ObjectId("623ebe2eac9ab90df984c402"),  "release_id" : 108,  "moderation" : "",  "timestamp" : "2022-03-04 23:00:00",  "user_id_insert" : 50279,  "user_id_update" : 0,  "remark" : "",  "artist" : "1800HaightStreet",  "name" : "Habit Forming EP",  "release_year" : "2020",  "release_month" : "3",  "release_day" : "20",  "label" : "Not On Label",  "weblink" : "https://www.discogs.com/release/15042736",  "tags" : [ "Acid", "Techno" ] },
{  "_id" : ObjectId("623ebe2eac9ab90df984c403"),  "release_id" : 109,  "moderation" : "",  "timestamp" : "2022-03-04 23:00:00",  "user_id_insert" : 69885,  "user_id_update" : 0,  "remark" : "",  "artist" : "1800HaightStreet",  "name" : "Heldled",  "release_year" : "2015",  "release_month" : "11",  "release_day" : "6",  "label" : "Mörk",  "weblink" : "http://www.discogs.com/release/7690327",  "tags" : [ "Ambient", "Deep", "House", "Techno" ] },
{  "_id" : ObjectId("623ebe2eac9ab90df984c404"),  "release_id" : 110,  "moderation" : "",  "timestamp" : "2022-03-04 23:00:00",  "user_id_insert" : 69004,  "user_id_update" : 0,  "remark" : "",  "artist" : "1800HaightStreet",  "name" : "The Pursuit",  "release_year" : "2015",  "release_month" : "2",  "release_day" : "25",  "label" : "Lobster Theremin",  "weblink" : "http://www.discogs.com/release/6703592",  "tags" : [ "Deep", "House", "Techno" ] },
{  "_id" : ObjectId("623ebe2eac9ab90df984c405"),  "release_id" : 111,  "moderation" : "",  "timestamp" : "2022-03-04 23:00:00",  "user_id_insert" : 30850,  "user_id_update" : 0,  "remark" : "",  "artist" : "187lockdown",  "name" : "Gunman",  "release_year" : "1997",  "release_month" : "0",  "release_day" : "0",  "label" : "EastWest / EastWest",  "weblink" : "http://www.discogs.com/release/24690",  "tags" : [ "Drum & Bass", "Speed Garage" ] },
{  "_id" : ObjectId("623ebe2eac9ab90df984c406"),  "release_id" : 112,  "moderation" : "",  "timestamp" : "2022-03-04 23:00:00",  "user_id_insert" : 71501,  "user_id_update" : 0,  "remark" : "",  "artist" : "19.26.1.18.5",  "name" : "HG04",  "release_year" : "2010",  "release_month" : "4",  "release_day" : "0",  "label" : "Horizontal Ground",  "weblink" : "https://www.discogs.com/release/2270997",  "tags" : [ "Techno" ] },
{  "_id" : ObjectId("623ebe2eac9ab90df984c407"),  "release_id" : 113,  "moderation" : "",  "timestamp" : "2022-03-04 23:00:00",  "user_id_insert" : 71501,  "user_id_update" : 0,  "remark" : "",  "artist" : "19.26.1.18.5",  "name" : "Horizontal Ground 02",  "release_year" : "2009",  "release_month" : "9",  "release_day" : "0",  "label" : "Horizontal Ground",  "weblink" : "https://www.discogs.com/release/2862745",  "tags" : [ "Techno" ] },
{  "_id" : ObjectId("623ebe2eac9ab90df984c408"),  "release_id" : 114,  "moderation" : "",  "timestamp" : "2022-03-04 23:00:00",  "user_id_insert" : 71501,  "user_id_update" : 0,  "remark" : "",  "artist" : "19.454.18.5.25.5.18",  "name" : "HG01",  "release_year" : "2010",  "release_month" : "1",  "release_day" : "0",  "label" : "Horizontal Ground",  "weblink" : "https://www.discogs.com/release/2317764",  "tags" : [ "Minimal", "Techno" ] },
{  "_id" : ObjectId("623ebe2eac9ab90df984c409"),  "release_id" : 115,  "moderation" : "",  "timestamp" : "2022-03-04 23:00:00",  "user_id_insert" : 53012,  "user_id_update" : 0,  "remark" : "",  "artist" : "19.454.18.5.25.5.18",  "name" : "Horizontal Ground 06",  "release_year" : "2010",  "release_month" : "9",  "release_day" : "0",  "label" : "Horizontal Ground",  "weblink" : "https://www.discogs.com/release/2865552",  "tags" : [ "Acid", "House", "Techno" ] },
{  "_id" : ObjectId("623ebe2eac9ab90df984c40a"),  "release_id" : 116,  "moderation" : "",  "timestamp" : "2022-03-04 23:00:00",  "user_id_insert" : 50279,  "user_id_update" : 0,  "remark" : "",  "artist" : "1977",  "name" : "Norman EP",  "release_year" : "2014",  "release_month" : "0",  "release_day" : "0",  "label" : "For Those Who Know",  "weblink" : "http://www.discogs.com/release/5792337",  "tags" : [ "Dub", "Techno" ] },
{  "_id" : ObjectId("623ebe2eac9ab90df984c40b"),  "release_id" : 117,  "moderation" : "",  "timestamp" : "2022-03-04 23:00:00",  "user_id_insert" : 1,  "user_id_update" : 0,  "remark" : "",  "artist" : "1977",  "name" : "Textures EP",  "release_year" : "2015",  "release_month" : "4",  "release_day" : "24",  "label" : "For Those Who Know",  "weblink" : "http://www.discogs.com/release/6935591",  "tags" : [ "Ambient", "Dub Techno", "Experimental" ] },
{  "_id" : ObjectId("623ebe2eac9ab90df984c40c"),  "release_id" : 118,  "moderation" : "",  "timestamp" : "2022-03-04 23:00:00",  "user_id_insert" : 59282,  "user_id_update" : 0,  "remark" : "",  "artist" : "1991",  "name" : "No More Dreams",  "release_year" : "2016",  "release_month" : "11",  "release_day" : "3",  "label" : "No More Dreams",  "weblink" : "https://www.discogs.com/release/9384922",  "tags" : [ "Abstract", "Ambient", "Experimental" ] },
{  "_id" : ObjectId("623ebe2eac9ab90df984c40d"),  "release_id" : 119,  "moderation" : "",  "timestamp" : "2022-03-04 23:00:00",  "user_id_insert" : 72211,  "user_id_update" : 0,  "remark" : "",  "artist" : "1DERL&",  "name" : "Holometabolous EP",  "release_year" : "2007",  "release_month" : "11",  "release_day" : "28",  "label" : "Deepindub.org",  "weblink" : "https://www.discogs.com/release/1150796",  "tags" : [ "Tech House", "Techno" ] },
{  "_id" : ObjectId("623ebe2eac9ab90df984c40e"),  "release_id" : 120,  "moderation" : "",  "timestamp" : "2022-03-04 23:00:00",  "user_id_insert" : 47433,  "user_id_update" : 0,  "remark" : "",  "artist" : "1point5",  "name" : "Sleepless EP",  "release_year" : "2012",  "release_month" : "12",  "release_day" : "3",  "label" : "Odea",  "weblink" : "http://www.junodownload.com/products/1point5-sleepless-ep/2082435-02/",  "tags" : [ "Dubstep", "Garage House", "UK Garage" ] },
{  "_id" : ObjectId("623ebe2eac9ab90df984c40f"),  "release_id" : 121,  "moderation" : "",  "timestamp" : "2022-03-04 23:00:00",  "user_id_insert" : 59658,  "user_id_update" : 0,  "remark" : "",  "artist" : "1st Bass",  "name" : "Slam Me Down",  "release_year" : "2001",  "release_month" : "11",  "release_day" : "5",  "label" : "NovaMute",  "weblink" : "https://www.discogs.com/release/30998",  "tags" : [ "Techno" ] },
{  "_id" : ObjectId("623ebe2eac9ab90df984c410"),  "release_id" : 122,  "moderation" : "",  "timestamp" : "2022-03-04 23:00:00",  "user_id_insert" : 69004,  "user_id_update" : 0,  "remark" : "",  "artist" : "2 AM/FM",  "name" : "Doomsday Initiative I",  "release_year" : "2015",  "release_month" : "1",  "release_day" : "0",  "label" : "Nation",  "weblink" : "http://www.discogs.com/release/6587690",  "tags" : [ "Acid", "Techno" ] },
{  "_id" : ObjectId("623ebe2eac9ab90df984c411"),  "release_id" : 123,  "moderation" : "",  "timestamp" : "2022-03-04 23:00:00",  "user_id_insert" : 21885,  "user_id_update" : 0,  "remark" : "",  "artist" : "2 AM/FM",  "name" : "Starfist Lazerbeam / Passion Of A Night",  "release_year" : "2014",  "release_month" : "12",  "release_day" : "0",  "label" : "M&gt;O&gt;S Recordings / Crème Organization",  "weblink" : "http://www.discogs.com/release/6365743",  "tags" : [ "House", "Techno" ] },
{  "_id" : ObjectId("623ebe2eac9ab90df984c412"),  "release_id" : 124,  "moderation" : "",  "timestamp" : "2022-03-04 23:00:00",  "user_id_insert" : 1,  "user_id_update" : 0,  "remark" : "",  "artist" : "2 Bad Mice",  "name" : "Hold It Down",  "release_year" : "1992",  "release_month" : "0",  "release_day" : "0",  "label" : "Moving Shadow",  "weblink" : "http://www.discogs.com/release/6117",  "tags" : [ "Breakbeat", "Hardcore" ] },
{  "_id" : ObjectId("623ebe2eac9ab90df984c413"),  "release_id" : 125,  "moderation" : "",  "timestamp" : "2022-03-04 23:00:00",  "user_id_insert" : 44461,  "user_id_update" : 0,  "remark" : "",  "artist" : "2 Bad Mice",  "name" : "Underworld EP",  "release_year" : "1993",  "release_month" : "0",  "release_day" : "0",  "label" : "Moving Shadow",  "weblink" : "https://itunes.apple.com/us/album/underworld-tribal-revival/id119693811",  "tags" : [ "Drum & Bass", "Hardcore" ] },
{  "_id" : ObjectId("623ebe2eac9ab90df984c414"),  "release_id" : 126,  "moderation" : "",  "timestamp" : "2022-03-04 23:00:00",  "user_id_insert" : 53465,  "user_id_update" : 0,  "remark" : "",  "artist" : "2 Belgen",  "name" : "Essential",  "release_year" : "2003",  "release_month" : "0",  "release_day" : "0",  "label" : "EMI Music (Belgium)",  "weblink" : "http://www.discogs.com/2-Belgen-Essential/release/299560",  "tags" : [ "Synth Pop" ] },
{  "_id" : ObjectId("623ebe2eac9ab90df984c415"),  "release_id" : 127,  "moderation" : "",  "timestamp" : "2022-03-04 23:00:00",  "user_id_insert" : 54162,  "user_id_update" : 0,  "remark" : "",  "artist" : "2 Bit Crew",  "name" : "Hoop Dreams",  "release_year" : "2016",  "release_month" : "1",  "release_day" : "15",  "label" : "2 Bit Crew Recordings",  "weblink" : "https://www.discogs.com/release/7833543",  "tags" : [ "House" ] },
{  "_id" : ObjectId("623ebe2eac9ab90df984c416"),  "release_id" : 128,  "moderation" : "",  "timestamp" : "2022-03-04 23:00:00",  "user_id_insert" : 1,  "user_id_update" : 0,  "remark" : "",  "artist" : "2 Bit Pie",  "name" : "2 Pie Island",  "release_year" : "2005",  "release_month" : "0",  "release_day" : "0",  "label" : "One Little Indian / One Little Indian",  "weblink" : "https://www.discogs.com/release/960127",  "tags" : [ "Big Beat", "Breaks", "Synth Pop" ] },
{  "_id" : ObjectId("623ebe2eac9ab90df984c417"),  "release_id" : 129,  "moderation" : "",  "timestamp" : "2022-03-04 23:00:00",  "user_id_insert" : 1,  "user_id_update" : 0,  "remark" : "",  "artist" : "2 Bit Pie",  "name" : "Here I Come",  "release_year" : "2006",  "release_month" : "0",  "release_day" : "0",  "label" : "One Little Indian",  "weblink" : "https://www.discogs.com/release/865904",  "tags" : [ "Progressive House" ] }]
