6efda771f5d78a858ff26d7dfefdd71ca9698e97
9bf2e139a4f8ae65986821e9fd0741332c6286b8
638698f002384d561fcd5e431a9a571bc3e2ac89
401ce17394efb3fc44e80500a46525a0e5c3ff27
37f3bb1ecd48b93140383c6b491032d61fa5bb10
25c6f726fc100f89f835edd1a4974243d5ace409
561d36a751e1322f0d1b3412abcc64630905e50a
39732a3802a7245634214fe79567e5fa324bd551
b926167dbf01e523adc5da9b1a5a5f3a98076c69
958ff82dba990219fd130b763216759e8b9a37a5
0bbb6ecf2cdfd35859fafb804a1b7a5092bfa5fe
a88e26c1ef19fbba35bf8934f8e139c691f37abb
9e13a677b16e91cbd3d53e088b1ef185ff173fe0
64c9a98f05e4b537d048e8b1733185af43fd9363
0fc0643d37d29a94dbb33d58b9c6a32fdfbfe59c
645ace9162891d22019b1d5733f9ecde2f0ec753
3621c2c21fcbf2591dc1f1dba55ee6c26a99d47e
ccb75ac36d02f22483e7c69aca5241b5939e89ed
07192b699070505b437160b27abc780b4fa93612
c2b8c50cc2c27c947e944876255dc387b50915a1
61e5d9eee756696d5983a7248e7c70790a294e42
de22d574eaf96bf6dfdc8288865b429f580d10ae
78cf597e4f460c1ca94537943d1f9b31a7ae4f0d
70abf0891d3a69808887bcccf22efc139dec4697
f1eb8208f34af768b820f755daf1a8e838a05343
f88546115a5f5851e11de73ae85d8d5161f0e7c8
f1005cad5720a97ec69c402ae85b155dcb8c3031
d89ac7b04fa571d162482ecc72ac5a3c015dbab2
a241c0ddd3bfee3f64f3540b0c642548e1d5eb9a
499ba1e41e3c88924b76925e06efae79d6609915
dc4795379dca8fe885fc478a0b960a1b27da7c53
3c15299d37f6614e06bb5162274daa6ea20bf366
6a94c4a09a5b1fdd48cbec199628091ba602cc6a
f91f8bfb97424fa508574d8f8b1849c9cee79dc4
84e266d422b45be5fc2fb2c6d7eae3ede65e4b63
1eac661847e115f6b7a8105a0d68d9245385dc44
5ef57f6d1a24685e5227596090a9fe8005dea1b2
269f37855ab8dc7815a40cc1ac6d04047aa51edf
1bd6229444ae7c22c251e076c5440db29f0c5cc9
ead167901152b949e59ca1956de94a58f6d3c0da
44528816618cc36477e04eda47436d805fff1847
9a78b5e66d0bb67587aac5725f645ec8d4d36510
30276b4545f96d39f05a7cd52d8d0f024e8b2dd8
ca34884f88502102e0a312db316b80234ec93f6f
5e98f3ac82fb71cf6ffc369d225e8f417c0e83d1
f74501a4734f3c1dc36e349b40e3e9ef3415c041
3821cf663647903b21f53c1cb86c083df02e565b
b6adc222957637564d0ce5967e93e6daf0c00b14
6ca1d1120de9090aeb933cd6e4b8f2dda67b76d2
3adb49e5662ee2112f10624de1e10436beef0d4e
e654720e6ae56125c9e4943a47e9bf070cd77ea1
8c7a9451f227cf8452ba4d0beb1a7a1c485c49ea
da1941393a906f61c86ba1f68ad7bc40802118a4
a9d507e172fc64bc72d94e5eaa3e2a1f7f4b64d0
770665ad0bafe45cd37bebdca402022c89b157aa
2367bcdfb13a5b907f8e0a5e5eb3989f4782b7cd
f24ddbaace5646d0d599d0aafebee925be0063d9
e4260362bd4736964835a5d038e59f325e8582bc
c89181225b9791f1d7d010dfbbfaed9bec893be0
d7b92a5f13620a6b02abb0b1e1b454cb26813c3e
fd8ee9db1886fc87384e57dd9347ea4a6c777f7e
9b1a010e42f5933516c76fec768481954216d807
3660357beca6cae5f4f8247888c20dc1899de9c5
2a55ff6877761a42852cd513ca0179ff9686f5d8
abbc6fd75c1b0cf8ac3df8f928263418f8799daa
3ec65c2ae25d41da0e723696eb837ab33c89be4e
153183df876b30e610ef09da404513743861ff99
725c092aa9daa2edd098f9b1123a66837a40e406
649987f6a943321541171b97e2a41633d261f002
62c6eaae7926f7e2a9acd1add4ee3b4ccbe275be
25e03b7c18173f5a7538d5545cf77e9cb94f62e7
13b946e689a79a2c1a05f922e4dddc217e13d274
51127287254fd17d5b93e6eddb67f9fb70f0e8fa
d0e09cabe2159704b0474dbb20e4c565b1df02e9
10f167c41324d4896e930cba657ac2ab112e4eac
a4afe9d4b4ea265ecaadd949a19290f581a07d8c
8abae30e507a9c44548244d066f65a173f6f1c9c
0dd4f9da7729e33d0521d7a28490ee2a7d730f92
94707e670df5f25d95a521179ee4f84fa8f87328
d67d05aaa50b2f3c45940e450599a104ea6c523b
f9b859d8c8d39efcdcbf6bf5dc0d2255271a0f9d
560095bc6ff005a1b5c06f5fa79cb6b1823bb610
2f81bf0064e8fb46039785a670983003991aeb67
16a9543eba41eb4909b34b4e0ee11f77406ad6d8
d956f1292a04c55d6768f62efc7fd84c7a57198c
d8e0e0d9f7ddcc912f688cedfdf0a68a23ad5726
edc023c2a8153a47a07c116663793a70fec2b4b8
48227c7855e568025e3118390051563a2cf49eda
492223b3b42ba3cd507245e680999eefb13cfd45
8964d1ebf155f5a37e05be567a45def8073553db
7c17f0f7c80be5b1963c852812a385abb2cfa67d
25c86167c4127713f63eef522b3c761e54082d20
8426c99f0bbb3c311fd794ae7b071c6f1e17f9d1
6274176f6fc4aaa7c1ad85ac3a986577c60143d2
3f72930b3a39a0ed4c8c880fdd932e7d0a2f5dee
a2711c6c88b9cd721b0e747fd77e27ae31ac323a
a430b2d057e90837431a64546d3d8fd641219bbf
7b79e0012af6c589207a9440474d0fe73233a4f4
37424fd7242072a5b6d5536da8333aae90c64fef
0d09c892f0edf642c142a88855c2f7738cd1c80b
ac3858a04dfeae6a2c8ed14d3e4ee052151a6628
ff6d73baaf249d5172fda4cbe719bc28b1b438be
09c88e9bd43c4cebdc9ed8bb0765b11c55cc8fa1
e38f66ce4cc806c7c72d7c38efee8ceeddc2eade
67e5b461503ff2883f3103b447a8a0acb69bcaa4
bd76f60300dc8004de9d45f232c80a736830d7c6
686d06695e3d4390d4d5e2708610af9df35610de
7634b79e5c2969d4658d9c1014d250e950c12925
04e562b4dee6081cee9b5cafdde9795c4537f99f
1e5329efb0abe3fa1e6f314388ff93d30b1db748
1ec8e0b65db968fe8d5e8ffd4d66d7e1039163d1
8ce95d92c2019b6682da13c6c827ddc70412beae
c2572f907ecc80ef17aa71ab5e3fb21229cb1e14
b94915fec015de3ea731251511c08b8dcdc958a7
5dcd449522d1e2eb75bb105b4e927c28055b7931
fb15f9cbde6113610f8627be5fba68d77fb79309
b83f6c0f41b37ec7fa29f3bf65b7ee5942814ed4
810bf37b7343e78b048bf7a9d01f020ada3f9249
4ae2cb133b83e24eb042b4a7cba80ec2eb7aab22
81e53f1f6e2c7d817af6ccccb8a6660e231a7251
1ebf7a3dd5d250f5203e713de383833616c286eb
6cf2187bba2b03e130e26eb15bc79e0bf0bf3421
cacedd3773fe2d488bd7c78aed4e4286a8a534ef
2d99d957757af4f9642e6cd9561ab521de6a4881
af0338ea2e85fd4b31fb5260879dd920d74b1f5e
4c6066a0d5c852d59c950511c3f07dd4b501a4fb
eb009ee8a21f9f974ff5a78ffdfae2280f6340f3
ef02814f34296688cde5d1deaabc0460a6f0d4e3
9b142fa78b885e48ccb0c7d06a7b7734c724c997
add961c37977d0e2faf1f601c488aac209a10715
03c2ca501161fabbac8740539076b8d167e63a0e
5c5073bcbfcaa55932f79fd814ba2dc20b97408f
04fd1b25dc313fb7cb8a6491f0c505f98fe5d083
313027001f6890d27b00a9bc7ecace8b1ba256fc
ab94645be2d3c6c3aa4f835044141be15a66cd6e
8249c9918de3a8ef4016d24d6658fb724a21c71a
3d65c78d9c2c9d5aef21920dbd0563a2d88ed7c1
9bbfbb092c2d32aeabd85770d856a9b2db90bce2
3374932389d99dc8513095de9a04e772a80115bd
f3caaf7b2c0102831c1cd9da8d190c66cb063c5b
239aa5ae0c6ff81be0045bebb261986d416e40cc
c9ffd70cc0085e4bc062740a60f4ffae8c361098
